# Blender v2.76 (sub 0) OBJ File: ''
# www.blender.org
v -0.005427 -0.870804 -1.004139
v -0.005427 1.129196 -1.004139
v 0.189663 -0.870804 -0.984924
v 0.189663 1.129196 -0.984924
v 0.377257 -0.870804 -0.928018
v 0.377257 1.129196 -0.928018
v 0.550143 -0.870804 -0.835608
v 0.550143 1.129196 -0.835608
v 0.701680 -0.870804 -0.711245
v 0.701680 1.129196 -0.711245
v 0.826043 -0.870804 -0.559709
v 0.826043 1.129196 -0.559709
v 0.918453 -0.870804 -0.386822
v 0.918453 1.129196 -0.386822
v 0.975358 -0.870804 -0.199229
v 0.975358 1.129196 -0.199229
v 0.994573 -0.870804 -0.004139
v 0.994573 1.129196 -0.004139
v 0.975358 -0.870804 0.190952
v 0.975358 1.129196 0.190952
v 0.918453 -0.870804 0.378545
v 0.918453 1.129196 0.378545
v 0.826043 -0.870804 0.551432
v 0.826043 1.129196 0.551432
v 0.701680 -0.870804 0.702968
v 0.701680 1.129196 0.702968
v 0.550143 -0.870804 0.827331
v 0.550143 1.129196 0.827331
v 0.377256 -0.870804 0.919741
v 0.377256 1.129196 0.919741
v 0.189663 -0.870804 0.976647
v 0.189663 1.129196 0.976647
v -0.005427 -0.870804 0.995861
v -0.005427 1.129196 0.995861
v -0.200518 -0.870804 0.976647
v -0.200518 1.129196 0.976647
v -0.388111 -0.870804 0.919741
v -0.388111 1.129196 0.919741
v -0.560998 -0.870804 0.827331
v -0.560998 1.129196 0.827331
v -0.712534 -0.870804 0.702968
v -0.712534 1.129196 0.702968
v -0.836897 -0.870804 0.551431
v -0.836897 1.129196 0.551431
v -0.929307 -0.870804 0.378544
v -0.929307 1.129196 0.378544
v -0.986212 -0.870804 0.190951
v -0.986212 1.129196 0.190951
v -1.005427 -0.870804 -0.004140
v -1.005427 1.129196 -0.004140
v -0.986212 -0.870804 -0.199230
v -0.986212 1.129196 -0.199230
v -0.929306 -0.870804 -0.386823
v -0.929306 1.129196 -0.386823
v -0.836896 -0.870804 -0.559710
v -0.836896 1.129196 -0.559710
v -0.712533 -0.870804 -0.711246
v -0.712533 1.129196 -0.711246
v -0.560996 -0.870804 -0.835609
v -0.560996 1.129196 -0.835609
v -0.388109 -0.870804 -0.928019
v -0.388109 1.129196 -0.928019
v -0.200516 -0.870804 -0.984924
v -0.200516 1.129196 -0.984924
vt 1.009305 -0.227437
vt 0.978244 -0.221752
vt 0.521686 -0.220412
vt 0.949612 -0.197085
vt 0.550227 -0.195746
vt 0.925656 -0.154387
vt 0.574133 -0.153047
vt 0.907053 -0.095296
vt 0.592728 -0.093956
vt 0.893460 -0.022084
vt 0.606338 -0.020744
vt 0.884208 0.062436
vt 0.615620 0.063775
vt 0.878686 0.155015
vt 0.621181 0.156354
vt 0.876485 0.252096
vt 0.623424 0.253435
vt 0.877433 0.349948
vt 0.622517 0.351287
vt 0.881602 0.444811
vt 0.618389 0.446150
vt 0.889301 0.533038
vt 0.610727 0.534378
vt 0.901063 0.611241
vt 0.598996 0.612580
vt 0.917557 0.676412
vt 0.582522 0.677752
vt 0.939316 0.726049
vt 0.560765 0.727388
vt 0.966166 0.758243
vt 0.533894 0.759582
vt 0.996527 0.771757
vt 0.503491 0.773096
vt 1.027379 0.766071
vt 1.472596 0.767411
vt 0.027379 0.766071
vt 0.055470 0.741405
vt 0.444477 0.742744
vt 0.078775 0.698706
vt 0.421168 0.700045
vt 0.096795 0.639615
vt 0.403163 0.640954
vt 0.109944 0.566403
vt 0.390042 0.567742
vt 0.118901 0.481883
vt 0.381120 0.483223
vt 0.124264 0.389304
vt 0.375797 0.390644
vt 0.126427 0.292223
vt 0.373675 0.293562
vt 0.125554 0.194371
vt 0.374590 0.195710
vt 0.121574 0.099508
vt 0.378610 0.100848
vt 0.114185 0.011281
vt 0.386035 0.012620
vt 0.102861 -0.066922
vt 0.397385 -0.065582
vt 0.086923 -0.132093
vt 0.413330 -0.130754
vt 0.065777 -0.181730
vt 0.434450 -0.180390
vt 1.055470 0.741405
vt 1.121574 0.099508
vt 0.039448 -0.213923
vt 0.009305 -0.227437
vt 0.490745 -0.226098
vt 0.460710 -0.212584
vt 0.472596 0.767411
vt 1.065777 -0.181730
vt 1.039448 -0.213923
vt 1.086923 -0.132093
vt 1.102861 -0.066922
vt 1.114185 0.011281
vt 1.125554 0.194371
vt 1.126427 0.292223
vt 1.124264 0.389304
vt 1.118901 0.481883
vt 1.109944 0.566403
vt 1.096795 0.639615
vt 1.078775 0.698706
vn 0.098000 0.000000 -0.995200
vn 0.290300 0.000000 -0.956900
vn 0.471400 0.000000 -0.881900
vn 0.634400 0.000000 -0.773000
vn 0.773000 0.000000 -0.634400
vn 0.881900 0.000000 -0.471400
vn 0.956900 0.000000 -0.290300
vn 0.995200 0.000000 -0.098000
vn 0.995200 0.000000 0.098000
vn 0.956900 0.000000 0.290300
vn 0.881900 0.000000 0.471400
vn 0.773000 0.000000 0.634400
vn 0.634400 0.000000 0.773000
vn 0.471400 0.000000 0.881900
vn 0.290300 0.000000 0.956900
vn 0.098000 0.000000 0.995200
vn -0.098000 0.000000 0.995200
vn -0.290300 0.000000 0.956900
vn -0.471400 0.000000 0.881900
vn -0.634400 0.000000 0.773000
vn -0.773000 0.000000 0.634400
vn -0.881900 0.000000 0.471400
vn -0.956900 0.000000 0.290300
vn -0.995200 0.000000 0.098000
vn -0.995200 0.000000 -0.098000
vn -0.956900 0.000000 -0.290300
vn -0.881900 0.000000 -0.471400
vn -0.773000 0.000000 -0.634400
vn -0.634400 0.000000 -0.773000
vn -0.471400 0.000000 -0.881900
vn 0.000000 1.000000 0.000000
vn -0.098000 0.000000 -0.995200
vn -0.290300 0.000000 -0.956900
vn 0.000000 -1.000000 0.000000
s off
f 2/1/1 4/2/1 3/3/1
f 4/2/2 6/4/2 5/5/2
f 6/4/3 8/6/3 7/7/3
f 8/6/4 10/8/4 9/9/4
f 10/8/5 12/10/5 11/11/5
f 12/10/6 14/12/6 13/13/6
f 14/12/7 16/14/7 15/15/7
f 16/14/8 18/16/8 17/17/8
f 18/16/9 20/18/9 19/19/9
f 20/18/10 22/20/10 21/21/10
f 22/20/11 24/22/11 23/23/11
f 24/22/12 26/24/12 25/25/12
f 26/24/13 28/26/13 27/27/13
f 28/26/14 30/28/14 29/29/14
f 30/28/15 32/30/15 31/31/15
f 32/30/16 34/32/16 33/33/16
f 34/32/17 36/34/17 35/35/17
f 36/36/18 38/37/18 37/38/18
f 38/37/19 40/39/19 39/40/19
f 40/39/20 42/41/20 41/42/20
f 42/41/21 44/43/21 43/44/21
f 44/43/22 46/45/22 45/46/22
f 46/45/23 48/47/23 47/48/23
f 48/47/24 50/49/24 49/50/24
f 50/49/25 52/51/25 51/52/25
f 52/51/26 54/53/26 53/54/26
f 54/53/27 56/55/27 55/56/27
f 56/55/28 58/57/28 57/58/28
f 58/57/29 60/59/29 59/60/29
f 60/59/30 62/61/30 61/62/30
f 38/63/31 22/20/31 54/64/31
f 64/65/32 2/66/32 1/67/32
f 62/61/33 64/65/33 63/68/33
f 39/40/34 47/48/34 63/68/34
f 1/67/1 2/1/1 3/3/1
f 3/3/2 4/2/2 5/5/2
f 5/5/3 6/4/3 7/7/3
f 7/7/4 8/6/4 9/9/4
f 9/9/5 10/8/5 11/11/5
f 11/11/6 12/10/6 13/13/6
f 13/13/7 14/12/7 15/15/7
f 15/15/8 16/14/8 17/17/8
f 17/17/9 18/16/9 19/19/9
f 19/19/10 20/18/10 21/21/10
f 21/21/11 22/20/11 23/23/11
f 23/23/12 24/22/12 25/25/12
f 25/25/13 26/24/13 27/27/13
f 27/27/14 28/26/14 29/29/14
f 29/29/15 30/28/15 31/31/15
f 31/31/16 32/30/16 33/33/16
f 33/33/17 34/32/17 35/35/17
f 35/69/18 36/36/18 37/38/18
f 37/38/19 38/37/19 39/40/19
f 39/40/20 40/39/20 41/42/20
f 41/42/21 42/41/21 43/44/21
f 43/44/22 44/43/22 45/46/22
f 45/46/23 46/45/23 47/48/23
f 47/48/24 48/47/24 49/50/24
f 49/50/25 50/49/25 51/52/25
f 51/52/26 52/51/26 53/54/26
f 53/54/27 54/53/27 55/56/27
f 55/56/28 56/55/28 57/58/28
f 57/58/29 58/57/29 59/60/29
f 59/60/30 60/59/30 61/62/30
f 6/4/31 4/2/31 62/70/31
f 2/1/31 64/71/31 62/70/31
f 62/70/31 60/72/31 58/73/31
f 58/73/31 56/74/31 54/64/31
f 54/64/31 52/75/31 50/76/31
f 50/76/31 48/77/31 54/64/31
f 46/78/31 44/79/31 42/80/31
f 42/80/31 40/81/31 46/78/31
f 38/63/31 36/34/31 34/32/31
f 34/32/31 32/30/31 30/28/31
f 30/28/31 28/26/31 22/20/31
f 26/24/31 24/22/31 22/20/31
f 22/20/31 20/18/31 14/12/31
f 18/16/31 16/14/31 14/12/31
f 14/12/31 12/10/31 10/8/31
f 10/8/31 8/6/31 6/4/31
f 4/2/31 2/1/31 62/70/31
f 62/70/31 58/73/31 6/4/31
f 54/64/31 48/77/31 46/78/31
f 46/78/31 40/81/31 38/63/31
f 38/63/31 34/32/31 22/20/31
f 28/26/31 26/24/31 22/20/31
f 20/18/31 18/16/31 14/12/31
f 14/12/31 10/8/31 6/4/31
f 6/4/31 58/73/31 54/64/31
f 54/64/31 46/78/31 38/63/31
f 34/32/31 30/28/31 22/20/31
f 22/20/31 14/12/31 6/4/31
f 6/4/31 54/64/31 22/20/31
f 63/68/32 64/65/32 1/67/32
f 61/62/33 62/61/33 63/68/33
f 63/68/34 1/67/34 3/3/34
f 3/3/34 5/5/34 7/7/34
f 7/7/34 9/9/34 15/15/34
f 11/11/34 13/13/34 15/15/34
f 15/15/34 17/17/34 19/19/34
f 19/19/34 21/21/34 15/15/34
f 23/23/34 25/25/34 27/27/34
f 27/27/34 29/29/34 31/31/34
f 31/31/34 33/33/34 35/69/34
f 35/69/34 37/38/34 39/40/34
f 39/40/34 41/42/34 43/44/34
f 43/44/34 45/46/34 47/48/34
f 47/48/34 49/50/34 51/52/34
f 51/52/34 53/54/34 47/48/34
f 55/56/34 57/58/34 63/68/34
f 59/60/34 61/62/34 63/68/34
f 63/68/34 3/3/34 15/15/34
f 9/9/34 11/11/34 15/15/34
f 15/15/34 21/21/34 23/23/34
f 23/23/34 27/27/34 15/15/34
f 31/31/34 35/69/34 39/40/34
f 39/40/34 43/44/34 47/48/34
f 47/48/34 53/54/34 55/56/34
f 57/58/34 59/60/34 63/68/34
f 3/3/34 7/7/34 15/15/34
f 15/15/34 27/27/34 31/31/34
f 31/31/34 39/40/34 63/68/34
f 47/48/34 55/56/34 63/68/34
f 63/68/34 15/15/34 31/31/34
