# Blender v2.68 (sub 0) OBJ File: ''
# www.blender.org
v -0.195090 0.980785 0.000000
v -0.382683 0.923880 0.000000
v -0.555570 0.831470 0.000000
v -0.707107 0.707107 0.000000
v -0.831470 0.555570 0.000000
v -0.923880 0.382683 0.000000
v -0.980785 0.195090 0.000000
v -1.000000 0.000000 0.000000
v -0.980785 -0.195090 0.000000
v -0.923880 -0.382683 0.000000
v -0.831470 -0.555570 0.000000
v -0.707107 -0.707107 0.000000
v -0.555570 -0.831470 0.000000
v -0.382683 -0.923880 0.000000
v -0.195090 -0.980785 0.000000
v -0.191342 0.980785 -0.038060
v -0.375330 0.923880 -0.074658
v -0.544895 0.831470 -0.108386
v -0.693520 0.707107 -0.137950
v -0.815493 0.555570 -0.162212
v -0.906127 0.382683 -0.180240
v -0.961940 0.195090 -0.191342
v -0.980785 0.000000 -0.195090
v -0.961940 -0.195090 -0.191342
v -0.906127 -0.382683 -0.180240
v -0.815493 -0.555570 -0.162212
v -0.693520 -0.707107 -0.137950
v -0.544895 -0.831470 -0.108386
v -0.375330 -0.923880 -0.074658
v -0.191341 -0.980785 -0.038060
v -0.180240 0.980785 -0.074658
v -0.353553 0.923880 -0.146447
v -0.513280 0.831470 -0.212608
v -0.653281 0.707107 -0.270598
v -0.768178 0.555570 -0.318190
v -0.853553 0.382683 -0.353553
v -0.906127 0.195090 -0.375330
v -0.923880 0.000000 -0.382684
v -0.906127 -0.195090 -0.375330
v -0.853553 -0.382683 -0.353554
v -0.768178 -0.555570 -0.318190
v -0.653281 -0.707107 -0.270598
v -0.513280 -0.831470 -0.212608
v -0.353553 -0.923880 -0.146447
v -0.180240 -0.980785 -0.074658
v -0.162212 0.980785 -0.108387
v -0.318190 0.923880 -0.212608
v -0.461940 0.831470 -0.308658
v -0.587938 0.707107 -0.392848
v -0.691342 0.555570 -0.461940
v -0.768178 0.382683 -0.513280
v -0.815493 0.195090 -0.544895
v -0.831470 0.000000 -0.555570
v -0.815493 -0.195090 -0.544895
v -0.768178 -0.382683 -0.513280
v -0.691342 -0.555570 -0.461940
v -0.587938 -0.707107 -0.392848
v -0.461940 -0.831470 -0.308658
v -0.318189 -0.923880 -0.212608
v -0.162211 -0.980785 -0.108386
v -0.137950 0.980785 -0.137950
v -0.270598 0.923880 -0.270598
v -0.392847 0.831470 -0.392848
v -0.500000 0.707107 -0.500000
v -0.587938 0.555570 -0.587938
v -0.653281 0.382683 -0.653282
v -0.693520 0.195090 -0.693520
v -0.707107 0.000000 -0.707107
v -0.693520 -0.195090 -0.693520
v -0.653281 -0.382683 -0.653282
v -0.587938 -0.555570 -0.587938
v -0.500000 -0.707107 -0.500000
v -0.392847 -0.831470 -0.392848
v -0.270598 -0.923880 -0.270598
v -0.137949 -0.980785 -0.137950
v -0.108386 0.980785 -0.162212
v -0.212607 0.923880 -0.318190
v -0.308658 0.831470 -0.461940
v -0.392847 0.707107 -0.587938
v -0.461939 0.555570 -0.691342
v -0.513280 0.382683 -0.768178
v -0.544895 0.195090 -0.815493
v -0.555570 0.000000 -0.831470
v -0.544895 -0.195090 -0.815493
v -0.513280 -0.382683 -0.768178
v -0.461939 -0.555570 -0.691342
v -0.392847 -0.707107 -0.587938
v -0.308658 -0.831470 -0.461940
v -0.212607 -0.923880 -0.318190
v -0.108386 -0.980785 -0.162212
v -0.074658 0.980785 -0.180240
v -0.146446 0.923880 -0.353554
v -0.212607 0.831470 -0.513280
v -0.270598 0.707107 -0.653282
v -0.318189 0.555570 -0.768178
v -0.353553 0.382683 -0.853554
v -0.375330 0.195090 -0.906128
v -0.382683 0.000000 -0.923880
v -0.375330 -0.195090 -0.906128
v -0.353553 -0.382683 -0.853554
v -0.318189 -0.555570 -0.768178
v -0.270598 -0.707107 -0.653282
v -0.212607 -0.831470 -0.513280
v -0.146446 -0.923880 -0.353554
v -0.074658 -0.980785 -0.180240
v -0.038060 0.980785 -0.191342
v -0.074658 0.923880 -0.375331
v -0.108386 0.831470 -0.544895
v -0.137949 0.707107 -0.693520
v -0.162211 0.555570 -0.815493
v -0.180240 0.382683 -0.906128
v -0.191341 0.195090 -0.961940
v -0.195090 0.000000 -0.980785
v -0.191341 -0.195090 -0.961940
v -0.180240 -0.382683 -0.906128
v -0.162211 -0.555570 -0.815493
v -0.137949 -0.707107 -0.693520
v -0.108386 -0.831470 -0.544895
v -0.074658 -0.923880 -0.375330
v -0.038060 -0.980785 -0.191342
v 0.000000 0.980785 -0.195091
v 0.000000 0.923880 -0.382684
v 0.000000 0.831470 -0.555570
v 0.000000 0.707107 -0.707107
v 0.000000 0.555570 -0.831470
v 0.000000 0.382683 -0.923880
v 0.000000 0.195090 -0.980785
v 0.000000 0.000000 -1.000000
v 0.000000 -0.195090 -0.980785
v 0.000000 -0.382683 -0.923880
v 0.000000 -0.555570 -0.831470
v 0.000000 -0.707107 -0.707107
v 0.000000 -0.831470 -0.555570
v 0.000000 -0.923880 -0.382684
v 0.000000 -0.980785 -0.195090
v 0.038061 0.980785 -0.191342
v 0.074658 0.923880 -0.375330
v 0.108387 0.831470 -0.544895
v 0.137950 0.707107 -0.693520
v 0.162212 0.555570 -0.815493
v 0.180240 0.382683 -0.906128
v 0.191342 0.195090 -0.961940
v 0.195091 0.000000 -0.980785
v 0.191342 -0.195090 -0.961940
v 0.180240 -0.382683 -0.906128
v 0.162212 -0.555570 -0.815493
v 0.137950 -0.707107 -0.693520
v 0.108387 -0.831470 -0.544895
v 0.074658 -0.923880 -0.375330
v 0.038061 -0.980785 -0.191342
v 0.074658 0.980785 -0.180240
v 0.146447 0.923880 -0.353554
v 0.212608 0.831470 -0.513280
v 0.270599 0.707107 -0.653282
v 0.318190 0.555570 -0.768178
v 0.353554 0.382683 -0.853553
v 0.375331 0.195090 -0.906127
v 0.382684 0.000000 -0.923880
v 0.375331 -0.195090 -0.906127
v 0.353554 -0.382683 -0.853554
v 0.318190 -0.555570 -0.768178
v 0.270599 -0.707107 -0.653282
v 0.212608 -0.831470 -0.513280
v 0.146447 -0.923880 -0.353553
v 0.074658 -0.980785 -0.180240
v 0.108387 0.980785 -0.162212
v 0.212608 0.923880 -0.318190
v 0.308659 0.831470 -0.461940
v 0.392848 0.707107 -0.587938
v 0.461940 0.555570 -0.691342
v 0.513280 0.382683 -0.768178
v 0.544895 0.195090 -0.815493
v 0.555571 0.000000 -0.831470
v 0.544895 -0.195090 -0.815493
v 0.513280 -0.382683 -0.768178
v 0.461940 -0.555570 -0.691342
v 0.392848 -0.707107 -0.587938
v 0.308659 -0.831470 -0.461940
v 0.212608 -0.923880 -0.318190
v 0.108387 -0.980785 -0.162212
v 0.137950 0.980785 -0.137950
v 0.270599 0.923880 -0.270598
v 0.392848 0.831470 -0.392848
v 0.500000 0.707107 -0.500000
v 0.587938 0.555570 -0.587938
v 0.653282 0.382683 -0.653281
v 0.693520 0.195090 -0.693520
v 0.707107 0.000000 -0.707107
v 0.693520 -0.195090 -0.693520
v 0.653282 -0.382683 -0.653282
v 0.587938 -0.555570 -0.587938
v 0.500000 -0.707107 -0.500000
v 0.392848 -0.831470 -0.392847
v 0.270598 -0.923880 -0.270598
v 0.137950 -0.980785 -0.137950
v 0.162212 0.980785 -0.108386
v 0.318190 0.923880 -0.212608
v 0.461940 0.831470 -0.308658
v 0.587938 0.707107 -0.392847
v 0.691342 0.555570 -0.461940
v 0.768178 0.382683 -0.513280
v 0.815493 0.195090 -0.544895
v 0.831470 0.000000 -0.555570
v 0.815493 -0.195090 -0.544895
v 0.768178 -0.382683 -0.513280
v 0.691342 -0.555570 -0.461940
v 0.587938 -0.707107 -0.392847
v 0.461940 -0.831470 -0.308658
v 0.318190 -0.923880 -0.212608
v 0.162212 -0.980785 -0.108386
v 0.180240 0.980785 -0.074658
v 0.353554 0.923880 -0.146447
v 0.513280 0.831470 -0.212608
v 0.653282 0.707107 -0.270598
v 0.768178 0.555570 -0.318190
v 0.853554 0.382683 -0.353553
v 0.906128 0.195090 -0.375330
v 0.923880 0.000000 -0.382683
v 0.906128 -0.195090 -0.375330
v 0.853554 -0.382683 -0.353553
v 0.768178 -0.555570 -0.318190
v 0.653282 -0.707107 -0.270598
v 0.513280 -0.831470 -0.212607
v 0.353554 -0.923880 -0.146447
v 0.180240 -0.980785 -0.074658
v 0.191342 0.980785 -0.038060
v 0.375331 0.923880 -0.074658
v 0.544896 0.831470 -0.108386
v 0.693520 0.707107 -0.137950
v 0.815493 0.555570 -0.162212
v 0.906128 0.382683 -0.180240
v 0.961940 0.195090 -0.191342
v 0.980785 0.000000 -0.195090
v 0.961940 -0.195090 -0.191342
v 0.906128 -0.382683 -0.180240
v 0.815493 -0.555570 -0.162212
v 0.693520 -0.707107 -0.137950
v 0.544895 -0.831470 -0.108386
v 0.375331 -0.923880 -0.074658
v 0.191342 -0.980785 -0.038060
v 0.195091 0.980785 0.000000
v 0.382684 0.923880 0.000000
v 0.555571 0.831470 0.000000
v 0.707107 0.707107 0.000000
v 0.831470 0.555570 0.000000
v 0.923880 0.382683 0.000000
v 0.980785 0.195090 0.000000
v 1.000000 0.000000 0.000000
v 0.980785 -0.195090 0.000000
v 0.923880 -0.382683 0.000000
v 0.831470 -0.555570 0.000000
v 0.707107 -0.707107 0.000000
v 0.555571 -0.831470 0.000000
v 0.382684 -0.923880 0.000000
v 0.195091 -0.980785 0.000000
v 0.191342 0.980785 0.038060
v 0.375331 0.923880 0.074658
v 0.544896 0.831470 0.108386
v 0.693520 0.707107 0.137950
v 0.815493 0.555570 0.162212
v 0.906128 0.382683 0.180240
v 0.961940 0.195090 0.191342
v 0.980785 0.000000 0.195090
v 0.961940 -0.195090 0.191342
v 0.906128 -0.382683 0.180240
v 0.815493 -0.555570 0.162212
v 0.693520 -0.707107 0.137950
v 0.544895 -0.831470 0.108386
v 0.375331 -0.923880 0.074658
v 0.191342 -0.980785 0.038060
v 0.180240 0.980785 0.074658
v 0.353554 0.923880 0.146447
v 0.513280 0.831470 0.212608
v 0.653282 0.707107 0.270598
v 0.768178 0.555570 0.318190
v 0.853554 0.382683 0.353554
v 0.906128 0.195090 0.375330
v 0.923880 0.000000 0.382683
v 0.906128 -0.195090 0.375330
v 0.853554 -0.382683 0.353553
v 0.768178 -0.555570 0.318190
v 0.653282 -0.707107 0.270598
v 0.513280 -0.831470 0.212608
v 0.353554 -0.923880 0.146447
v 0.180240 -0.980785 0.074658
v 0.162212 0.980785 0.108387
v 0.318190 0.923880 0.212608
v 0.461940 0.831470 0.308658
v 0.587938 0.707107 0.392848
v 0.691342 0.555570 0.461940
v 0.768178 0.382683 0.513280
v 0.815493 0.195090 0.544895
v 0.831470 0.000000 0.555570
v 0.815493 -0.195090 0.544895
v 0.768178 -0.382683 0.513280
v 0.691342 -0.555570 0.461940
v 0.587938 -0.707107 0.392848
v 0.461940 -0.831470 0.308658
v 0.318190 -0.923880 0.212608
v 0.162212 -0.980785 0.108386
v 0.137950 0.980785 0.137950
v 0.270598 0.923880 0.270598
v 0.392848 0.831470 0.392848
v 0.500000 0.707107 0.500000
v 0.587938 0.555570 0.587938
v 0.653282 0.382683 0.653282
v 0.693520 0.195090 0.693520
v 0.707107 0.000000 0.707107
v 0.693520 -0.195090 0.693520
v 0.653282 -0.382683 0.653282
v 0.587938 -0.555570 0.587938
v 0.500000 -0.707107 0.500000
v 0.392848 -0.831470 0.392848
v 0.270598 -0.923880 0.270598
v 0.137950 -0.980785 0.137950
v 0.108387 0.980785 0.162212
v 0.212608 0.923880 0.318190
v 0.308659 0.831470 0.461940
v 0.392848 0.707107 0.587938
v 0.461940 0.555570 0.691342
v 0.513280 0.382683 0.768178
v 0.544895 0.195090 0.815493
v 0.555570 0.000000 0.831469
v 0.544895 -0.195090 0.815493
v 0.513280 -0.382683 0.768178
v 0.461940 -0.555570 0.691342
v 0.392848 -0.707107 0.587938
v 0.308659 -0.831470 0.461940
v 0.212608 -0.923880 0.318190
v 0.108387 -0.980785 0.162212
v 0.000000 -1.000000 0.000000
v 0.074658 0.980785 0.180240
v 0.146447 0.923880 0.353554
v 0.212608 0.831470 0.513280
v 0.270598 0.707107 0.653281
v 0.318190 0.555570 0.768178
v 0.353554 0.382683 0.853553
v 0.375330 0.195090 0.906127
v 0.382683 0.000000 0.923879
v 0.375330 -0.195090 0.906127
v 0.353554 -0.382683 0.853553
v 0.318190 -0.555570 0.768178
v 0.270598 -0.707107 0.653281
v 0.212608 -0.831470 0.513280
v 0.146447 -0.923880 0.353553
v 0.074658 -0.980785 0.180240
v 0.038061 0.980785 0.191342
v 0.074658 0.923880 0.375330
v 0.108387 0.831470 0.544895
v 0.137950 0.707107 0.693520
v 0.162212 0.555570 0.815493
v 0.180240 0.382683 0.906127
v 0.191342 0.195090 0.961940
v 0.195090 0.000000 0.980785
v 0.191342 -0.195090 0.961940
v 0.180240 -0.382683 0.906128
v 0.162212 -0.555570 0.815493
v 0.137950 -0.707107 0.693520
v 0.108387 -0.831470 0.544895
v 0.074658 -0.923880 0.375330
v 0.038061 -0.980785 0.191342
v 0.000000 0.980785 0.195090
v 0.000000 0.923880 0.382684
v 0.000000 0.831470 0.555570
v 0.000000 0.707107 0.707107
v 0.000000 0.555570 0.831469
v 0.000000 0.382683 0.923879
v 0.000000 0.195090 0.980785
v 0.000000 0.000000 1.000000
v 0.000000 -0.195090 0.980785
v 0.000000 -0.382683 0.923880
v 0.000000 -0.555570 0.831469
v 0.000000 -0.707107 0.707107
v 0.000000 -0.831470 0.555570
v 0.000000 -0.923880 0.382683
v 0.000000 -0.980785 0.195090
v -0.038060 0.980785 0.191342
v -0.074658 0.923880 0.375330
v -0.108386 0.831470 0.544895
v -0.137949 0.707107 0.693520
v -0.162211 0.555570 0.815493
v -0.180240 0.382683 0.906127
v -0.191342 0.195090 0.961939
v -0.195090 0.000000 0.980785
v -0.191342 -0.195090 0.961939
v -0.180240 -0.382683 0.906127
v -0.162211 -0.555570 0.815493
v -0.137949 -0.707107 0.693520
v -0.108386 -0.831470 0.544895
v -0.074658 -0.923880 0.375330
v -0.038060 -0.980785 0.191342
v -0.074658 0.980785 0.180240
v -0.146446 0.923880 0.353553
v -0.212607 0.831470 0.513280
v -0.270598 0.707107 0.653281
v -0.318189 0.555570 0.768177
v -0.353553 0.382683 0.853553
v -0.375330 0.195090 0.906127
v -0.382683 0.000000 0.923879
v -0.375330 -0.195090 0.906127
v -0.353553 -0.382683 0.853553
v -0.318189 -0.555570 0.768177
v -0.270598 -0.707107 0.653281
v -0.212607 -0.831470 0.513280
v -0.146446 -0.923880 0.353553
v -0.074657 -0.980785 0.180240
v -0.108386 0.980785 0.162212
v -0.212607 0.923880 0.318190
v -0.308658 0.831470 0.461940
v -0.392847 0.707107 0.587938
v -0.461939 0.555570 0.691341
v -0.513280 0.382683 0.768178
v -0.544895 0.195090 0.815493
v -0.555570 0.000000 0.831469
v -0.544895 -0.195090 0.815493
v -0.513280 -0.382683 0.768178
v -0.461939 -0.555570 0.691341
v -0.392847 -0.707107 0.587938
v -0.308658 -0.831470 0.461940
v -0.212607 -0.923880 0.318190
v -0.108386 -0.980785 0.162212
v -0.137949 0.980785 0.137950
v -0.270598 0.923880 0.270598
v -0.392847 0.831470 0.392847
v -0.500000 0.707107 0.500000
v -0.587937 0.555570 0.587937
v -0.653281 0.382683 0.653281
v -0.693519 0.195090 0.693519
v -0.707106 0.000000 0.707106
v -0.693519 -0.195090 0.693519
v -0.653281 -0.382683 0.653281
v -0.587937 -0.555570 0.587937
v -0.500000 -0.707107 0.500000
v -0.392847 -0.831470 0.392847
v -0.270598 -0.923880 0.270598
v -0.137949 -0.980785 0.137950
v 0.000000 1.000000 0.000000
v -0.162211 0.980785 0.108386
v -0.318189 0.923880 0.212608
v -0.461939 0.831470 0.308658
v -0.587937 0.707107 0.392847
v -0.691341 0.555570 0.461939
v -0.768177 0.382683 0.513280
v -0.815493 0.195090 0.544895
v -0.831469 0.000000 0.555570
v -0.815493 -0.195090 0.544895
v -0.768178 -0.382683 0.513280
v -0.691341 -0.555570 0.461939
v -0.587937 -0.707107 0.392847
v -0.461939 -0.831470 0.308658
v -0.318189 -0.923880 0.212608
v -0.162211 -0.980785 0.108386
v -0.180240 0.980785 0.074658
v -0.353553 0.923880 0.146447
v -0.513280 0.831470 0.212607
v -0.653281 0.707107 0.270598
v -0.768177 0.555570 0.318189
v -0.853553 0.382683 0.353553
v -0.906127 0.195090 0.375330
v -0.923879 0.000000 0.382683
v -0.906127 -0.195090 0.375330
v -0.853553 -0.382683 0.353553
v -0.768177 -0.555570 0.318189
v -0.653281 -0.707107 0.270598
v -0.513280 -0.831470 0.212607
v -0.353553 -0.923880 0.146447
v -0.180240 -0.980785 0.074658
v -0.191341 0.980785 0.038060
v -0.375330 0.923880 0.074658
v -0.544895 0.831470 0.108386
v -0.693520 0.707107 0.137950
v -0.815492 0.555570 0.162211
v -0.906127 0.382683 0.180240
v -0.961939 0.195090 0.191341
v -0.980784 0.000000 0.195090
v -0.961939 -0.195090 0.191341
v -0.906127 -0.382683 0.180240
v -0.815492 -0.555570 0.162211
v -0.693520 -0.707107 0.137950
v -0.544895 -0.831470 0.108386
v -0.375330 -0.923880 0.074658
v -0.191341 -0.980785 0.038060
vt 0.067156 0.570413
vt 0.073887 0.631595
vt 0.036021 0.580066
vt 0.196016 0.918498
vt 0.333915 0.937286
vt 0.138246 0.943159
vt 0.060989 0.509119
vt 0.135028 0.869370
vt 0.054891 0.447811
vt 0.028936 0.455859
vt 0.107782 0.812401
vt 0.061220 0.827236
vt 0.048386 0.386583
vt 0.092315 0.752973
vt 0.040867 0.325557
vt 0.025234 0.393773
vt 0.081872 0.692529
vt 0.051220 0.765862
vt 0.031336 0.264931
vt 0.015638 0.269848
vt 0.044778 0.704085
vt 0.448527 0.905466
vt 0.356456 0.960107
vt 0.017784 0.205113
vt 0.002796 0.459454
vt 0.007907 0.771825
vt 0.020989 0.331748
vt 0.001965 0.396975
vt 0.001015 0.334499
vt 0.039986 0.642122
vt 0.005301 0.646891
vt 0.466638 0.912069
vt 0.447682 0.976645
vt 1.008043 0.208201
vt 1.015638 0.269848
vt 0.999822 0.272029
vt 0.032439 0.517967
vt 0.004397 0.584414
vt 0.080647 0.887528
vt 0.034176 0.958662
vt 0.003585 0.521934
vt 0.010297 0.834265
vt 1.003585 0.521934
vt 1.004397 0.584414
vt 0.974661 0.520859
vt 1.015221 0.896641
vt 1.034176 0.958662
vt 0.904978 0.953949
vt 1.002796 0.459454
vt 1.010297 0.834265
vt 0.958226 0.832335
vt 1.001965 0.396975
vt 0.976612 0.458481
vt 1.007907 0.771825
vt 1.001015 0.334499
vt 0.978668 0.396109
vt 1.006404 0.709363
vt 0.964040 0.770198
vt 0.983979 0.271439
vt 1.005301 0.646891
vt 0.970429 0.645596
vt 0.488610 0.915189
vt 0.511577 0.914333
vt 0.998129 0.209571
vt 0.972657 0.583235
vt 0.595877 0.971215
vt 0.981020 0.333755
vt 0.961079 0.329532
vt 0.967719 0.707927
vt 0.936013 0.638321
vt 0.647807 0.950687
vt 0.988176 0.209201
vt 0.978319 0.207096
vt 0.941200 0.576589
vt 0.946455 0.894099
vt 0.823807 0.933258
vt 0.950535 0.452971
vt 0.885287 0.880701
vt 0.921503 0.761167
vt 0.955439 0.391196
vt 0.908873 0.821779
vt 0.864639 0.804207
vt 0.924693 0.443100
vt 0.881675 0.745695
vt 0.932358 0.382361
vt 0.929787 0.699898
vt 0.968202 0.268089
vt 0.952583 0.262030
vt 0.902582 0.625525
vt 0.532175 0.909643
vt 0.548166 0.901813
vt 0.777305 0.907037
vt 0.945911 0.514786
vt 0.917545 0.503960
vt 0.835902 0.859805
vt 0.910362 0.564812
vt 0.870446 0.607941
vt 0.659037 0.927175
vt 0.745300 0.879338
vt 0.889690 0.488794
vt 0.825891 0.781668
vt 0.899158 0.429173
vt 0.845097 0.725165
vt 0.941260 0.321910
vt 0.921611 0.311033
vt 0.893448 0.685920
vt 0.558962 0.891763
vt 0.968695 0.203294
vt 0.937209 0.253354
vt 0.909472 0.369816
vt 0.886774 0.353852
vt 0.859136 0.666985
vt 0.811613 0.701028
vt 0.902153 0.297095
vt 0.839664 0.586462
vt 0.657607 0.903302
vt 0.565047 0.880357
vt 0.959449 0.197860
vt 0.950742 0.190891
vt 0.880347 0.548455
vt 0.650899 0.879836
vt 0.862365 0.469829
vt 0.796385 0.834663
vt 0.719784 0.851589
vt 0.791803 0.756015
vt 0.873929 0.411594
vt 0.835477 0.447684
vt 0.763610 0.807482
vt 0.761226 0.728711
vt 0.848920 0.390841
vt 0.780693 0.674598
vt 0.864196 0.334814
vt 0.826879 0.644227
vt 0.922167 0.242191
vt 0.907539 0.228698
vt 0.810089 0.562031
vt 0.641452 0.857179
vt 0.851201 0.528217
vt 0.697492 0.824480
vt 0.942759 0.182515
vt 0.893414 0.213060
vt 0.822818 0.504873
vt 0.781429 0.535581
vt 0.676891 0.798466
vt 0.808822 0.423029
vt 0.735147 0.779653
vt 0.709376 0.752105
vt 0.823944 0.367441
vt 0.733105 0.700875
vt 0.882867 0.280332
vt 0.841590 0.313094
vt 0.796418 0.618773
vt 0.751695 0.647001
vt 0.567268 0.868303
vt 0.630338 0.835624
vt 0.863688 0.261010
vt 0.818709 0.289116
vt 0.767340 0.591668
vt 0.723996 0.619193
vt 0.844487 0.239416
vt 0.753309 0.508011
vt 0.566457 0.856148
vt 0.563300 0.844314
vt 0.935719 0.172890
vt 0.879896 0.195479
vt 0.794966 0.479228
vt 0.657173 0.773912
vt 0.782092 0.396562
vt 0.685241 0.725518
vt 0.798714 0.341964
vt 0.706593 0.673391
vt 0.754885 0.369020
vt 0.662044 0.700446
vt 0.772822 0.315021
vt 0.697047 0.592015
vt 0.795182 0.263338
vt 0.739178 0.563865
vt 0.867123 0.176171
vt 0.725311 0.480192
vt 0.618082 0.815427
vt 0.604972 0.796826
vt 0.929896 0.162212
vt 0.767315 0.452094
vt 0.637870 0.751148
vt 0.925640 0.150719
vt 0.855308 0.155368
vt 0.739467 0.424292
vt 0.697011 0.452991
vt 0.591182 0.780044
vt 0.726706 0.341193
vt 0.639317 0.677374
vt 0.681041 0.646993
vt 0.655961 0.622327
vt 0.745717 0.287291
vt 0.670392 0.566231
vt 0.825051 0.215853
vt 0.770454 0.236269
vt 0.711466 0.536245
vt 0.805029 0.190637
vt 0.558329 0.833135
vt 0.743695 0.208508
vt 0.683774 0.509644
vt 0.643669 0.542558
vt 0.844816 0.133311
vt 0.668005 0.427287
vt 0.551952 0.822879
vt 0.544481 0.813763
vt 0.923407 0.138703
vt 0.710973 0.396675
vt 0.618699 0.730484
vt 0.599486 0.712215
vt 0.696970 0.313966
vt 0.616747 0.656744
vt 0.716668 0.259562
vt 0.594131 0.638967
vt 0.665037 0.288362
vt 0.631000 0.599984
vt 0.684737 0.232805
vt 0.605914 0.580518
vt 0.783837 0.164110
vt 0.713639 0.180821
vt 0.655731 0.484878
vt 0.627046 0.462757
vt 0.760428 0.136665
vt 0.637946 0.403995
vt 0.576832 0.765294
vt 0.562017 0.752770
vt 0.923791 0.126533
vt 0.836350 0.110271
vt 0.681363 0.370149
vt 0.580132 0.696622
vt 0.597536 0.444077
vt 0.536166 0.805967
vt 0.546824 0.742646
vt 0.927547 0.114679
vt 0.831424 0.086572
vt 0.650183 0.345708
vt 0.606595 0.384057
vt 0.630288 0.265588
vt 0.571358 0.624416
vt 0.580561 0.564436
vt 0.678348 0.154298
vt 0.616615 0.521685
vt 0.589070 0.504263
vt 0.732723 0.108828
vt 0.648805 0.208274
vt 0.607782 0.187599
vt 0.554891 0.552189
vt 0.635028 0.130630
vt 0.560989 0.490881
vt 0.833915 0.062714
vt 0.573887 0.368405
vt 0.527209 0.799637
vt 0.517784 0.794886
vt 0.935538 0.103753
vt 0.617071 0.324434
vt 0.581872 0.307471
vt 0.560593 0.683958
vt 0.540867 0.674443
vt 0.548386 0.613417
vt 0.592315 0.247027
vt 0.551220 0.234138
vt 0.525234 0.606227
vt 0.561220 0.172764
vt 0.528936 0.544141
vt 0.696016 0.081502
vt 0.580647 0.112472
vt 0.567156 0.429587
vt 0.536021 0.419934
vt 0.638246 0.056841
vt 0.539986 0.357878
vt 0.531336 0.735069
vt 0.515638 0.730152
vt 0.948527 0.094534
vt 0.966637 0.087931
vt 0.520989 0.668252
vt 0.856456 0.039893
vt 0.534176 0.041338
vt 0.504397 0.415586
vt 0.508043 0.791799
vt 0.498129 0.790428
vt 0.988610 0.084811
vt 0.544778 0.295915
vt 0.505301 0.353109
vt 0.501015 0.665501
vt 0.507907 0.228175
vt 0.501965 0.603025
vt 0.515221 0.103359
vt 0.532439 0.482033
vt 0.502796 0.540546
vt 0.503585 0.478066
vt 0.510297 0.165735
vt 0.446455 0.105901
vt 0.476612 0.541519
vt 0.404978 0.046051
vt 0.474661 0.479141
vt 0.947682 0.023355
vt 1.095877 0.028785
vt 0.470429 0.354404
vt 0.499822 0.727971
vt 0.483979 0.728560
vt 0.506404 0.290637
vt 0.464040 0.229802
vt 0.481020 0.666245
vt 0.478668 0.603891
vt 0.467719 0.292073
vt 0.421503 0.238833
vt 0.461079 0.670468
vt 0.458226 0.167665
vt 0.408873 0.178221
vt 0.450536 0.547029
vt 0.385287 0.119299
vt 0.472657 0.416765
vt 0.445911 0.485214
vt 0.095877 0.028785
vt 0.147807 0.049312
vt 0.436013 0.361679
vt 0.488176 0.790799
vt 0.468202 0.731911
vt 0.011577 0.085667
vt 0.323807 0.066742
vt 0.159037 0.072825
vt 0.441200 0.423411
vt 0.410362 0.435188
vt 0.478319 0.792904
vt 0.452583 0.737970
vt 0.032175 0.090357
vt 0.429787 0.300102
vt 0.402582 0.374476
vt 0.441260 0.678089
vt 0.381676 0.254306
vt 0.455439 0.608804
vt 0.364639 0.195793
vt 0.424693 0.556900
vt 0.335902 0.140195
vt 0.417545 0.496040
vt 0.325892 0.218332
vt 0.399158 0.570827
vt 0.277305 0.092963
vt 0.296385 0.165337
vt 0.389690 0.511206
vt 0.157607 0.096698
vt 0.370446 0.392059
vt 0.468695 0.796706
vt 0.459449 0.802140
vt 0.048166 0.098187
vt 0.393448 0.314080
vt 0.437209 0.746646
vt 0.345098 0.274835
vt 0.432358 0.617639
vt 0.409472 0.630184
vt 0.421611 0.688967
vt 0.402153 0.702905
vt 0.359136 0.333015
vt 0.311613 0.298972
vt 0.386774 0.646148
vt 0.291803 0.243985
vt 0.373930 0.588406
vt 0.245300 0.120661
vt 0.263610 0.192518
vt 0.380347 0.451545
vt 0.362365 0.530171
vt 0.219785 0.148411
vt 0.339664 0.413539
vt 0.450742 0.809109
vt 0.058962 0.108237
vt 0.150899 0.120164
vt 0.351201 0.471783
vt 0.335478 0.552316
vt 0.197492 0.175520
vt 0.310089 0.437969
vt 0.422167 0.757809
vt 0.407539 0.771302
vt 0.065046 0.119642
vt 0.141452 0.142821
vt 0.326879 0.355773
vt 0.382867 0.719668
vt 0.280693 0.325402
vt 0.364196 0.665186
vt 0.348920 0.609159
vt 0.261226 0.271289
vt 0.235147 0.220346
vt 0.233105 0.299125
vt 0.341590 0.686906
vt 0.323944 0.632559
vt 0.209376 0.247895
vt 0.322818 0.495127
vt 0.308822 0.576971
vt 0.130338 0.164376
vt 0.281429 0.464420
vt 0.442759 0.817485
vt 0.393414 0.786940
vt 0.067268 0.131697
vt 0.296418 0.381227
vt 0.363688 0.738990
vt 0.251695 0.352999
vt 0.066457 0.143852
vt 0.063300 0.155685
vt 0.267340 0.408332
vt 0.253309 0.491989
vt 0.344487 0.760584
vt 0.223996 0.380807
vt 0.318709 0.710884
vt 0.298714 0.658036
vt 0.206593 0.326609
vt 0.176891 0.201534
vt 0.185241 0.274482
vt 0.294966 0.520772
vt 0.282092 0.603438
vt 0.118082 0.184573
vt 0.435719 0.827110
vt 0.379896 0.804521
vt 0.157173 0.226088
vt 0.162044 0.299554
vt 0.267315 0.547906
vt 0.254885 0.630980
vt 0.104972 0.203174
vt 0.239467 0.575708
vt 0.429896 0.837788
vt 0.425640 0.849281
vt 0.239178 0.436135
vt 0.225311 0.519808
vt 0.367123 0.823829
vt 0.197047 0.407985
vt 0.295182 0.736662
vt 0.181041 0.353007
vt 0.272822 0.684979
vt 0.155961 0.377673
vt 0.245717 0.712709
vt 0.137870 0.248852
vt 0.139317 0.322626
vt 0.226706 0.658807
vt 0.091182 0.219955
vt 0.210973 0.603325
vt 0.355308 0.844632
vt 0.058329 0.166864
vt 0.211466 0.463755
vt 0.183774 0.490356
vt 0.325051 0.784147
vt 0.305029 0.809363
vt 0.170392 0.433769
vt 0.051952 0.177121
vt 0.076832 0.234706
vt 0.197011 0.547009
vt 0.155731 0.515122
vt 0.344817 0.866689
vt 0.143669 0.457442
vt 0.270454 0.763731
vt 0.243695 0.791492
vt 0.216668 0.740438
vt 0.131000 0.400015
vt 0.118699 0.269516
vt 0.116747 0.343256
vt 0.181363 0.629851
vt 0.423407 0.861296
vt 0.423791 0.873467
vt 0.099486 0.287785
vt 0.094131 0.361033
vt 0.196970 0.686034
vt 0.150183 0.654292
vt 0.062017 0.247229
vt 0.168005 0.572713
vt 0.336350 0.889729
vt 0.044481 0.186237
vt 0.127046 0.537243
vt 0.283838 0.835890
vt 0.116615 0.478315
vt 0.260429 0.863335
vt 0.184737 0.767195
vt 0.105914 0.419482
vt 0.080561 0.435564
vt 0.213639 0.819179
vt 0.148805 0.791726
vt 0.165037 0.711638
vt 0.080132 0.303378
vt 0.071358 0.375584
vt 0.117071 0.675566
vt 0.046824 0.257353
vt 0.137946 0.596005
vt 0.427547 0.885321
vt 0.435539 0.896247
vt 0.036166 0.194032
vt 0.097536 0.555923
vt 0.232723 0.891172
vt 0.089070 0.495737
vt 0.995265 0.147143
vt 1.017784 0.205113
vt 0.495265 0.852856
vt 1.011577 0.085667
vt 1.032175 0.090357
vt 1.048166 0.098187
vt 1.058962 0.108237
vt 1.065046 0.119642
vt 1.067268 0.131697
vt 1.066457 0.143852
vt 1.063300 0.155685
vt 1.058329 0.166864
vt 1.051952 0.177121
vt 1.044481 0.186237
vt 1.036166 0.194032
vt 1.027209 0.200363
vt 0.331424 0.913428
vt 0.027209 0.200363
vt 0.106595 0.615943
vt 0.178349 0.845702
vt 0.130288 0.734413
vt 0.060593 0.316042
vt 0.008043 0.208201
vt 0.006404 0.709363
vt 0.015221 0.896641
vn -0.980987 -0.193915 0.000000
vn -1.000000 0.000000 0.000000
vn -0.962157 -0.193915 -0.191382
vn -0.559771 0.828639 0.000000
vn -0.387860 0.921690 0.000000
vn -0.548997 0.828639 -0.109195
vn -0.924741 -0.380535 0.000000
vn -0.710135 0.704031 0.000000
vn -0.833338 -0.552751 0.000000
vn -0.817316 -0.552751 -0.162572
vn -0.833338 0.552751 0.000000
vn -0.817316 0.552751 -0.162572
vn -0.710135 -0.704031 0.000000
vn -0.924741 0.380535 0.000000
vn -0.559771 -0.828639 0.000000
vn -0.696493 -0.704031 -0.138524
vn -0.980987 0.193915 0.000000
vn -0.906980 0.380535 -0.180395
vn -0.387860 -0.921690 0.000000
vn -0.380413 -0.921690 -0.075655
vn -0.962157 0.193915 -0.191382
vn -0.200964 0.979583 0.000000
vn -0.380413 0.921690 -0.075655
vn -0.200964 -0.979583 0.000000
vn -0.769890 -0.552751 -0.318888
vn -0.854366 0.380535 -0.353893
vn -0.548997 -0.828639 -0.109195
vn -0.656056 -0.704031 -0.271737
vn -0.517136 -0.828639 -0.214209
vn -0.980773 0.000000 -0.195074
vn -0.923856 0.000000 -0.382672
vn -0.197089 0.979583 -0.039186
vn -0.358348 0.921690 -0.148412
vn -0.197089 -0.979583 -0.039186
vn -0.358348 -0.921690 -0.148412
vn -0.906980 -0.380535 -0.180395
vn -0.906339 -0.193915 -0.375408
vn -0.696493 0.704031 -0.138524
vn -0.517136 0.828639 -0.214209
vn -0.854366 -0.380535 -0.353862
vn -0.769890 0.552751 -0.318888
vn -0.768914 -0.380535 -0.513749
vn -0.656056 0.704031 -0.271737
vn -0.465407 0.828639 -0.310984
vn -0.692892 0.552751 -0.462966
vn -0.692892 -0.552751 -0.462966
vn -0.590442 -0.704031 -0.394513
vn -0.906339 0.193915 -0.375408
vn -0.768914 0.380535 -0.513749
vn -0.322489 -0.921690 -0.215491
vn -0.831446 0.000000 -0.555559
vn -0.185644 0.979583 -0.076907
vn -0.167089 0.979583 -0.111637
vn -0.185644 -0.979583 -0.076907
vn -0.815668 -0.193915 -0.545000
vn -0.322489 0.921690 -0.215491
vn -0.465407 -0.828639 -0.310984
vn -0.395795 -0.828639 -0.395795
vn -0.815668 0.193915 -0.545000
vn -0.707083 0.000000 -0.707083
vn -0.274270 0.921690 -0.274270
vn -0.167089 -0.979583 -0.111637
vn -0.142094 -0.979583 -0.142094
vn -0.693655 -0.193915 -0.693655
vn -0.590442 0.704031 -0.394513
vn -0.395795 0.828639 -0.395795
vn -0.589251 -0.552751 -0.589251
vn -0.502121 0.704031 -0.502121
vn -0.653890 0.380535 -0.653890
vn -0.502121 -0.704031 -0.502121
vn -0.589251 0.552751 -0.589251
vn -0.462966 0.552751 -0.692892
vn -0.462966 -0.552751 -0.692892
vn -0.513749 0.380535 -0.768914
vn -0.394513 -0.704031 -0.590442
vn -0.693655 0.193915 -0.693655
vn -0.274270 -0.921690 -0.274270
vn -0.215491 -0.921690 -0.322489
vn -0.555559 0.000000 -0.831446
vn -0.142094 0.979583 -0.142094
vn -0.111637 0.979583 -0.167089
vn -0.310984 0.828639 -0.465407
vn -0.653890 -0.380535 -0.653890
vn -0.513749 -0.380535 -0.768914
vn -0.394513 0.704031 -0.590442
vn -0.545000 -0.193915 -0.815668
vn -0.382672 0.000000 -0.923856
vn -0.215491 0.921690 -0.322489
vn -0.214209 0.828639 -0.517136
vn -0.353862 -0.380535 -0.854366
vn -0.318888 0.552751 -0.769890
vn -0.318888 -0.552751 -0.769890
vn -0.353862 0.380535 -0.854366
vn -0.310984 -0.828639 -0.465407
vn -0.214209 -0.828639 -0.517136
vn -0.545000 0.193915 -0.815668
vn -0.076907 0.979583 -0.185644
vn -0.111637 -0.979583 -0.167089
vn -0.148412 -0.921690 -0.358348
vn -0.271737 -0.704031 -0.656056
vn -0.138524 -0.704031 -0.696493
vn -0.375408 0.193915 -0.906339
vn -0.180395 0.380535 -0.906980
vn -0.109195 -0.828639 -0.548997
vn -0.195074 0.000000 -0.980773
vn -0.148412 0.921690 -0.358348
vn -0.039186 0.979583 -0.197089
vn -0.076907 -0.979583 -0.185644
vn -0.039186 -0.979583 -0.197089
vn -0.375408 -0.193915 -0.906339
vn -0.075655 0.921690 -0.380413
vn -0.180395 -0.380535 -0.906980
vn -0.271737 0.704031 -0.656056
vn -0.109195 0.828639 -0.548997
vn -0.162572 0.552751 -0.817316
vn -0.162572 -0.552751 -0.817316
vn 0.000000 -0.380535 -0.924741
vn -0.138524 0.704031 -0.696493
vn 0.000000 0.552751 -0.833338
vn 0.000000 -0.552751 -0.833338
vn 0.000000 0.380535 -0.924741
vn 0.000000 -0.704031 -0.710135
vn -0.191382 0.193915 -0.962157
vn -0.075655 -0.921690 -0.380413
vn 0.000000 -0.921690 -0.387860
vn 0.000000 0.000000 -1.000000
vn 0.000000 0.921690 -0.387860
vn -0.191382 -0.193915 -0.962157
vn 0.000000 0.828639 -0.559771
vn 0.000000 -0.979583 -0.200964
vn 0.075655 -0.921690 -0.380413
vn 0.000000 -0.193915 -0.980987
vn 0.195074 0.000000 -0.980773
vn 0.109195 0.828639 -0.548997
vn 0.180395 -0.380535 -0.906980
vn 0.000000 0.704031 -0.710135
vn 0.138524 0.704031 -0.696493
vn 0.162572 -0.552751 -0.817316
vn 0.162572 0.552751 -0.817316
vn 0.000000 -0.828639 -0.559771
vn 0.138524 -0.704031 -0.696493
vn 0.000000 0.193915 -0.980987
vn 0.180395 0.380535 -0.906980
vn 0.000000 0.979583 -0.200964
vn 0.075655 0.921690 -0.380413
vn 0.109195 -0.828639 -0.548997
vn 0.271737 -0.704031 -0.656056
vn 0.191382 0.193915 -0.962157
vn 0.353893 0.380535 -0.854366
vn 0.214209 -0.828639 -0.517136
vn 0.382672 0.000000 -0.923856
vn 0.039186 0.979583 -0.197089
vn 0.076907 0.979583 -0.185644
vn 0.039186 -0.979583 -0.197089
vn 0.148412 -0.921690 -0.358348
vn 0.191382 -0.193915 -0.962157
vn 0.214209 0.828639 -0.517136
vn 0.353862 -0.380535 -0.854366
vn 0.271737 0.704031 -0.656056
vn 0.318888 -0.552751 -0.769890
vn 0.318888 0.552751 -0.769890
vn 0.513749 -0.380535 -0.768914
vn 0.394513 0.704031 -0.590442
vn 0.462966 -0.552751 -0.692892
vn 0.513749 0.380535 -0.768914
vn 0.394513 -0.704031 -0.590442
vn 0.375408 0.193915 -0.906339
vn 0.215491 -0.921690 -0.322489
vn 0.555559 0.000000 -0.831446
vn 0.148412 0.921690 -0.358348
vn 0.215491 0.921690 -0.322489
vn 0.076907 -0.979583 -0.185644
vn 0.375408 -0.193915 -0.906339
vn 0.310984 0.828639 -0.465407
vn 0.111637 -0.979583 -0.167089
vn 0.274270 -0.921690 -0.274270
vn 0.545000 -0.193915 -0.815668
vn 0.707083 0.000000 -0.707083
vn 0.274270 0.921690 -0.274270
vn 0.653890 -0.380535 -0.653890
vn 0.502121 0.704031 -0.502121
vn 0.462966 0.552751 -0.692892
vn 0.589251 0.552751 -0.589251
vn 0.589251 -0.552751 -0.589251
vn 0.653890 0.380535 -0.653890
vn 0.310984 -0.828639 -0.465407
vn 0.502121 -0.704031 -0.502121
vn 0.545000 0.193915 -0.815668
vn 0.395795 -0.828639 -0.395795
vn 0.111637 0.979583 -0.167089
vn 0.590442 -0.704031 -0.394513
vn 0.693655 0.193915 -0.693655
vn 0.768914 0.380535 -0.513749
vn 0.322489 -0.921690 -0.215491
vn 0.831446 0.000000 -0.555559
vn 0.142094 0.979583 -0.142094
vn 0.167089 0.979583 -0.111637
vn 0.142094 -0.979583 -0.142094
vn 0.693655 -0.193915 -0.693655
vn 0.395795 0.828639 -0.395795
vn 0.465407 0.828639 -0.310984
vn 0.768914 -0.380535 -0.513749
vn 0.590442 0.704031 -0.394513
vn 0.692892 -0.552751 -0.462966
vn 0.656056 0.704031 -0.271737
vn 0.854366 -0.380535 -0.353862
vn 0.692892 0.552751 -0.462966
vn 0.769890 -0.552751 -0.318888
vn 0.769890 0.552751 -0.318888
vn 0.465407 -0.828639 -0.310984
vn 0.656056 -0.704031 -0.271737
vn 0.815668 0.193915 -0.545000
vn 0.906339 0.193915 -0.375408
vn 0.517136 -0.828639 -0.214209
vn 0.923856 0.000000 -0.382672
vn 0.322489 0.921690 -0.215491
vn 0.358348 0.921690 -0.148412
vn 0.167089 -0.979583 -0.111637
vn 0.358348 -0.921690 -0.148412
vn 0.815668 -0.193915 -0.545000
vn 0.517136 0.828639 -0.214209
vn 0.962157 0.193915 -0.191382
vn 0.185644 0.979583 -0.076907
vn 0.380413 0.921690 -0.075655
vn 0.185644 -0.979583 -0.076907
vn 0.380413 -0.921690 -0.075655
vn 0.906339 -0.193915 -0.375408
vn 0.980773 0.000000 -0.195074
vn 0.906980 -0.380535 -0.180395
vn 0.696493 0.704031 -0.138524
vn 0.817316 0.552751 -0.162572
vn 0.696493 -0.704031 -0.138524
vn 0.854366 0.380535 -0.353862
vn 0.906980 0.380535 -0.180395
vn 0.548997 -0.828639 -0.109195
vn 0.817316 -0.552751 -0.162572
vn 0.833338 -0.552751 0.000000
vn 0.833338 0.552751 0.000000
vn 0.710135 -0.704031 0.000000
vn 0.924741 0.380535 0.000000
vn 0.387860 -0.921690 0.000000
vn 1.000000 0.000000 0.000000
vn 0.197089 0.979583 -0.039186
vn 0.200964 0.979583 0.000000
vn 0.197089 -0.979583 -0.039186
vn 0.962157 -0.193915 -0.191382
vn 0.980987 -0.193915 0.000000
vn 0.548997 0.828639 -0.109195
vn 0.559771 0.828639 0.000000
vn 0.710135 0.704031 0.000000
vn 0.924741 -0.380535 0.000000
vn 0.906980 -0.380535 0.180395
vn 0.696493 0.704031 0.138524
vn 0.817316 -0.552751 0.162572
vn 0.817316 0.552751 0.162572
vn 0.559771 -0.828639 0.000000
vn 0.696493 -0.704031 0.138524
vn 0.980987 0.193915 0.000000
vn 0.962157 0.193915 0.191382
vn 0.548997 -0.828639 0.109195
vn 0.980773 0.000000 0.195074
vn 0.387860 0.921690 0.000000
vn 0.380413 0.921690 0.075655
vn 0.200964 -0.979583 0.000000
vn 0.197089 -0.979583 0.039186
vn 0.548997 0.828639 0.109195
vn 0.380413 -0.921690 0.075655
vn 0.517136 -0.828639 0.214209
vn 0.906339 0.193915 0.375408
vn 0.197089 0.979583 0.039186
vn 0.185644 0.979583 0.076907
vn 0.185644 -0.979583 0.076907
vn 0.962157 -0.193915 0.191382
vn 0.923856 0.000000 0.382672
vn 0.517136 0.828639 0.214209
vn 0.854366 -0.380535 0.353893
vn 0.656056 0.704031 0.271737
vn 0.656056 -0.704031 0.271737
vn 0.906980 0.380535 0.180395
vn 0.769890 0.552751 0.318888
vn 0.854366 0.380535 0.353893
vn 0.769890 -0.552751 0.318888
vn 0.590442 -0.704031 0.394513
vn 0.692892 0.552751 0.462966
vn 0.465407 -0.828639 0.310984
vn 0.768914 0.380535 0.513749
vn 0.358348 -0.921690 0.148412
vn 0.322489 -0.921690 0.215491
vn 0.831446 0.000000 0.555559
vn 0.358348 0.921690 0.148412
vn 0.322489 0.921690 0.215491
vn 0.906339 -0.193915 0.375408
vn 0.768914 -0.380535 0.513749
vn 0.465407 0.828639 0.310984
vn 0.590442 0.704031 0.394513
vn 0.815668 -0.193915 0.545000
vn 0.653890 -0.380535 0.653890
vn 0.395795 0.828639 0.395795
vn 0.692892 -0.552751 0.462966
vn 0.589251 -0.552751 0.589251
vn 0.589251 0.552751 0.589251
vn 0.502121 -0.704031 0.502121
vn 0.815668 0.193915 0.545000
vn 0.653890 0.380535 0.653890
vn 0.274270 -0.921690 0.274270
vn 0.707083 0.000000 0.707083
vn 0.167089 0.979583 0.111637
vn 0.274270 0.921690 0.274270
vn 0.167089 -0.979583 0.111637
vn 0.395795 -0.828639 0.395795
vn 0.215491 -0.921690 0.322489
vn 0.693655 0.193915 0.693655
vn 0.545000 0.193915 0.815668
vn 0.142094 0.979583 0.142094
vn 0.215491 0.921690 0.322489
vn 0.142094 -0.979583 0.142094
vn 0.693655 -0.193915 0.693655
vn 0.555559 0.000000 0.831446
vn 0.310984 0.828639 0.465407
vn 0.513749 -0.380535 0.768914
vn 0.502121 0.704031 0.502121
vn 0.462966 -0.552751 0.692892
vn 0.462966 0.552751 0.692892
vn 0.394513 -0.704031 0.590442
vn 0.513749 0.380535 0.768914
vn 0.318888 -0.552751 0.769890
vn 0.318888 0.552751 0.769890
vn 0.310984 -0.828639 0.465407
vn 0.271737 -0.704031 0.656056
vn 0.353862 0.380535 0.854366
vn 0.148412 -0.921690 0.358348
vn 0.382672 0.000000 0.923856
vn 0.111637 0.979583 0.167089
vn 0.076907 0.979583 0.185644
vn 0.111637 -0.979583 0.167089
vn 0.545000 -0.193915 0.815668
vn 0.148412 0.921690 0.358348
vn 0.353862 -0.380535 0.854366
vn 0.394513 0.704031 0.590442
vn 0.271737 0.704031 0.656056
vn 0.214209 0.828639 0.517136
vn 0.109195 0.828639 0.548997
vn 0.375408 -0.193915 0.906339
vn 0.180395 -0.380535 0.906980
vn 0.138524 0.704031 0.696493
vn 0.162572 -0.552751 0.817316
vn 0.162572 0.552751 0.817316
vn 0.214209 -0.828639 0.517136
vn 0.138524 -0.704031 0.696493
vn 0.375408 0.193915 0.906339
vn 0.180395 0.380535 0.906980
vn 0.109195 -0.828639 0.548997
vn 0.195074 0.000000 0.980773
vn 0.039186 0.979583 0.197089
vn 0.076907 -0.979583 0.185644
vn 0.075655 -0.921690 0.380413
vn 0.191382 0.193915 0.962157
vn 0.000000 0.380535 0.924741
vn 0.000000 -0.828639 0.559771
vn 0.000000 0.000000 1.000000
vn 0.075655 0.921690 0.380413
vn 0.000000 0.921690 0.387860
vn 0.039186 -0.979583 0.197089
vn 0.000000 -0.921690 0.387860
vn 0.191382 -0.193915 0.962157
vn 0.000000 0.828639 0.559771
vn 0.000000 -0.380535 0.924741
vn 0.000000 0.704031 0.710135
vn 0.000000 0.552751 0.833338
vn 0.000000 -0.552751 0.833338
vn 0.000000 -0.704031 0.710135
vn -0.162572 -0.552751 0.817316
vn -0.138524 0.704031 0.696493
vn -0.162572 0.552751 0.817316
vn -0.138524 -0.704031 0.696493
vn 0.000000 0.193915 0.980987
vn -0.180395 0.380535 0.906980
vn -0.075655 -0.921690 0.380413
vn -0.195074 0.000000 0.980773
vn 0.000000 0.979583 0.200964
vn -0.075655 0.921690 0.380413
vn 0.000000 -0.979583 0.200964
vn 0.000000 -0.193915 0.980987
vn -0.109195 0.828639 0.548997
vn -0.180395 -0.380535 0.906980
vn -0.039186 -0.979583 0.197089
vn -0.076907 -0.979583 0.185644
vn -0.191382 -0.193915 0.962157
vn -0.382672 0.000000 0.923856
vn -0.214209 0.828639 0.517136
vn -0.353862 -0.380535 0.854366
vn -0.271737 0.704031 0.656056
vn -0.318888 0.552751 0.769890
vn -0.318888 -0.552751 0.769890
vn -0.109195 -0.828639 0.548997
vn -0.271737 -0.704031 0.656056
vn -0.191382 0.193915 0.962157
vn -0.353893 0.380535 0.854366
vn -0.148412 -0.921690 0.358348
vn -0.039186 0.979583 0.197089
vn -0.148412 0.921690 0.358348
vn -0.214209 -0.828639 0.517136
vn -0.394513 -0.704031 0.590442
vn -0.375408 0.193915 0.906339
vn -0.513749 0.380535 0.768914
vn -0.215491 -0.921690 0.322489
vn -0.545000 0.193915 0.815668
vn -0.076907 0.979583 0.185644
vn -0.111637 0.979583 0.167089
vn -0.375408 -0.193915 0.906339
vn -0.555559 0.000000 0.831446
vn -0.215491 0.921690 0.322489
vn -0.513749 -0.380535 0.768914
vn -0.394513 0.704031 0.590442
vn -0.462966 -0.552751 0.692892
vn -0.462966 0.552751 0.692892
vn -0.589251 -0.552751 0.589251
vn -0.589251 0.552751 0.589251
vn -0.310984 -0.828639 0.465407
vn -0.502121 -0.704031 0.502121
vn -0.653890 0.380535 0.653890
vn -0.274270 -0.921690 0.274270
vn -0.693655 0.193915 0.693655
vn -0.274270 0.921690 0.274270
vn -0.111637 -0.979583 0.167089
vn -0.545000 -0.193915 0.815668
vn -0.693655 -0.193915 0.693655
vn -0.310984 0.828639 0.465407
vn -0.395795 0.828639 0.395795
vn -0.653890 -0.380535 0.653890
vn -0.142094 -0.979583 0.142094
vn -0.322489 -0.921690 0.215491
vn -0.707083 0.000000 0.707083
vn -0.815668 -0.193915 0.545000
vn -0.322489 0.921690 0.215491
vn -0.768914 -0.380535 0.513749
vn -0.502121 0.704031 0.502121
vn -0.590442 0.704031 0.394513
vn -0.692892 0.552751 0.462966
vn -0.692892 -0.552751 0.462966
vn -0.395795 -0.828639 0.395795
vn -0.590442 -0.704031 0.394513
vn -0.815668 0.193915 0.545000
vn -0.142094 0.979583 0.142094
vn -0.167089 0.979583 0.111637
vn -0.465407 -0.828639 0.310984
vn -0.656056 -0.704031 0.271737
vn -0.768914 0.380535 0.513749
vn -0.906339 0.193915 0.375408
vn -0.358348 -0.921690 0.148412
vn -0.831446 0.000000 0.555559
vn -0.358348 0.921690 0.148412
vn -0.167089 -0.979583 0.111637
vn -0.906339 -0.193915 0.375408
vn -0.465407 0.828639 0.310984
vn -0.854366 -0.380535 0.353862
vn -0.517136 0.828639 0.214209
vn -0.769890 0.552751 0.318888
vn -0.769890 -0.552751 0.318888
vn -0.817316 -0.552751 0.162572
vn -0.656056 0.704031 0.271737
vn -0.817316 0.552751 0.162572
vn -0.854366 0.380535 0.353862
vn -0.517136 -0.828639 0.214209
vn -0.696493 -0.704031 0.138524
vn -0.962157 0.193915 0.191382
vn -0.380413 -0.921690 0.075655
vn -0.923856 0.000000 0.382672
vn -0.185644 0.979583 0.076907
vn -0.197089 0.979583 0.039186
vn -0.185644 -0.979583 0.076907
vn -0.962157 -0.193915 0.191382
vn -0.548997 0.828639 0.109195
vn -0.906980 -0.380535 0.180395
vn 0.000000 -1.000000 0.000000
vn 0.000000 1.000000 0.000000
vn -0.197089 -0.979583 0.039186
vn -0.380413 0.921690 0.075655
vn -0.980773 0.000000 0.195074
vn -0.696493 0.704031 0.138524
vn -0.906980 0.380535 0.180395
vn -0.548997 -0.828639 0.109195
s 1
f 9/1/1 8/2/2 24/3/3
f 3/4/4 2/5/5 18/6/6
f 10/7/7 9/1/1 24/3/3
f 4/8/8 3/4/4 18/6/6
f 11/9/9 10/7/7 26/10/10
f 5/11/11 4/8/8 20/12/12
f 12/13/13 11/9/9 26/10/10
f 6/14/14 5/11/11 20/12/12
f 13/15/15 12/13/13 27/16/16
f 7/17/17 6/14/14 21/18/18
f 14/19/19 13/15/15 29/20/20
f 8/2/2 7/17/17 22/21/21
f 2/5/5 1/22/22 17/23/23
f 15/24/24 14/19/19 29/20/20
f 27/16/16 26/10/10 41/25/25
f 21/18/18 20/12/12 36/26/26
f 28/27/27 27/16/16 42/28/28
f 22/21/21 21/18/18 36/26/26
f 29/20/20 28/27/27 43/29/29
f 23/30/30 22/21/21 38/31/31
f 17/23/23 16/32/32 32/33/33
f 30/34/34 29/35/20 44/36/35
f 24/3/3 23/30/30 38/31/31
f 18/6/6 17/23/23 32/33/33
f 25/37/36 24/3/3 39/38/37
f 19/39/38 18/6/6 33/40/39
f 26/10/10 25/37/36 40/41/40
f 20/12/12 19/39/38 35/42/41
f 40/43/40 39/44/37 55/45/42
f 34/46/43 33/47/39 48/48/44
f 41/49/25 40/43/40 55/45/42
f 35/50/41 34/46/43 50/51/45
f 42/52/28 41/49/25 56/53/46
f 36/54/26 35/50/41 50/51/45
f 43/55/29 42/52/28 57/56/47
f 37/57/48 36/54/26 51/58/49
f 44/36/35 43/55/29 59/59/50
f 38/60/31 37/57/48 53/61/51
f 32/33/33 31/62/52 46/63/53
f 45/64/54 44/36/35 59/59/50
f 39/44/37 38/60/31 54/65/55
f 33/47/39 32/33/33 47/66/56
f 59/59/50 58/67/57 73/68/58
f 53/61/51 52/69/59 68/70/60
f 47/66/56 46/63/53 62/71/61
f 60/72/62 59/59/50 75/73/63
f 54/65/55 53/61/51 69/74/64
f 48/48/44 47/66/56 62/71/61
f 55/45/42 54/65/55 69/74/64
f 49/75/65 48/48/44 63/76/66
f 56/53/46 55/45/42 71/77/67
f 50/51/45 49/75/65 64/78/68
f 57/56/47 56/53/46 71/77/67
f 51/58/49 50/51/45 66/79/69
f 58/67/57 57/56/47 72/80/70
f 52/69/59 51/58/49 66/79/69
f 65/81/71 64/78/68 80/82/72
f 72/80/70 71/77/67 86/83/73
f 66/79/69 65/81/71 81/84/74
f 73/68/58 72/80/70 87/85/75
f 67/86/76 66/79/69 81/84/74
f 74/87/77 73/68/58 89/88/78
f 68/70/60 67/86/76 83/89/79
f 62/71/61 61/90/80 76/91/81
f 75/73/63 74/87/77 89/88/78
f 69/74/64 68/70/60 83/89/79
f 63/76/66 62/71/61 78/92/82
f 70/93/83 69/74/64 85/94/84
f 64/78/68 63/76/66 79/95/85
f 71/77/67 70/93/83 85/94/84
f 84/96/86 83/89/79 98/97/87
f 78/92/82 77/98/88 93/99/89
f 85/94/84 84/96/86 100/100/90
f 79/95/85 78/92/82 93/99/89
f 86/83/73 85/94/84 100/100/90
f 80/82/72 79/95/85 95/101/91
f 87/85/75 86/83/73 101/102/92
f 81/84/74 80/82/72 96/103/93
f 88/104/94 87/85/75 103/105/95
f 82/106/96 81/84/74 96/103/93
f 89/88/78 88/104/94 103/105/95
f 83/89/79 82/106/96 98/97/87
f 77/98/88 76/91/81 91/107/97
f 90/108/98 89/88/78 104/109/99
f 103/105/95 102/110/100 117/111/101
f 97/112/102 96/103/93 111/113/103
f 104/109/99 103/105/95 118/114/104
f 98/97/87 97/112/102 113/115/105
f 92/116/106 91/107/97 106/117/107
f 105/118/108 104/109/99 120/119/109
f 99/120/110 98/97/87 113/115/105
f 93/99/89 92/116/106 107/121/111
f 100/100/90 99/120/110 115/122/112
f 94/123/113 93/99/89 108/124/114
f 101/102/92 100/100/90 115/122/112
f 95/101/91 94/123/113 110/125/115
f 102/110/100 101/102/92 116/126/116
f 96/103/93 95/101/91 110/125/115
f 116/126/116 115/122/112 130/127/117
f 110/125/115 109/128/118 125/129/119
f 117/111/101 116/126/116 131/130/120
f 111/113/103 110/125/115 126/131/121
f 118/114/104 117/111/101 132/132/122
f 112/133/123 111/113/103 126/131/121
f 119/134/124 118/114/104 134/135/125
f 113/115/105 112/133/123 128/136/126
f 107/121/111 106/117/107 122/137/127
f 120/119/109 119/134/124 134/135/125
f 114/138/128 113/115/105 128/136/126
f 108/124/114 107/121/111 123/139/129
f 115/122/112 114/138/128 130/127/117
f 109/128/118 108/124/114 123/139/129
f 135/140/130 134/135/125 149/141/131
f 129/142/132 128/136/126 143/143/133
f 123/139/129 122/137/127 138/144/134
f 130/127/117 129/142/132 145/145/135
f 124/146/136 123/139/129 138/144/134
f 131/130/120 130/127/117 145/145/135
f 125/129/119 124/146/136 139/147/137
f 132/132/122 131/130/120 146/148/138
f 126/131/121 125/129/119 140/149/139
f 133/150/140 132/132/122 147/151/141
f 127/152/142 126/131/121 141/153/143
f 134/135/125 133/150/140 149/141/131
f 128/136/126 127/152/142 143/143/133
f 122/137/127 121/154/144 137/155/145
f 148/156/146 147/151/141 162/157/147
f 142/158/148 141/153/143 156/159/149
f 149/141/131 148/156/146 163/160/150
f 143/143/133 142/158/148 158/161/151
f 137/155/145 136/162/152 151/163/153
f 150/164/154 149/141/131 164/165/155
f 144/166/156 143/143/133 158/161/151
f 138/144/134 137/155/145 153/167/157
f 145/145/135 144/166/156 160/168/158
f 139/147/137 138/144/134 153/167/157
f 146/148/138 145/145/135 160/168/158
f 140/149/139 139/147/137 154/169/159
f 147/151/141 146/148/138 161/170/160
f 141/153/143 140/149/139 155/171/161
f 161/170/160 160/168/158 175/172/162
f 155/171/161 154/169/159 169/173/163
f 162/157/147 161/170/160 176/174/164
f 156/159/149 155/171/161 171/175/165
f 163/160/150 162/157/147 177/176/166
f 157/177/167 156/159/149 171/175/165
f 164/165/155 163/160/150 179/178/168
f 158/161/151 157/177/167 173/179/169
f 152/180/170 151/163/153 167/181/171
f 165/182/172 164/165/155 179/178/168
f 159/183/173 158/161/151 173/179/169
f 153/167/157 152/180/170 167/181/171
f 160/168/158 159/183/173 175/172/162
f 154/169/159 153/167/157 168/184/174
f 180/185/175 179/178/168 194/186/176
f 174/187/177 173/179/169 188/188/178
f 168/184/174 167/181/171 182/189/179
f 175/172/162 174/187/177 190/190/180
f 169/173/163 168/184/174 184/191/181
f 176/174/164 175/172/162 190/190/180
f 170/192/182 169/173/163 185/193/183
f 177/176/166 176/174/164 191/194/184
f 171/175/165 170/192/182 186/195/185
f 178/196/186 177/176/166 192/197/187
f 172/198/188 171/175/165 186/195/185
f 179/178/168 178/196/186 193/199/189
f 173/179/169 172/198/188 188/188/178
f 167/181/171 166/200/190 182/189/179
f 193/199/189 192/197/187 207/201/191
f 187/202/192 186/195/185 201/203/193
f 194/186/176 193/199/189 209/204/194
f 188/188/178 187/202/192 203/205/195
f 182/189/179 181/206/196 196/207/197
f 195/208/198 194/186/176 209/204/194
f 189/209/199 188/188/178 203/205/195
f 183/210/200 182/189/179 198/211/201
f 190/190/180 189/209/199 205/212/202
f 184/191/181 183/210/200 199/213/203
f 191/194/184 190/190/180 205/212/202
f 185/193/183 184/191/181 199/213/203
f 192/197/187 191/194/184 206/214/204
f 186/195/185 185/193/183 201/203/193
f 199/213/203 198/211/201 214/215/205
f 206/214/204 205/212/202 220/216/206
f 200/217/207 199/213/203 214/215/205
f 207/201/191 206/214/204 221/218/208
f 201/203/193 200/217/207 215/219/209
f 208/220/210 207/201/191 222/221/211
f 202/222/212 201/203/193 217/223/213
f 209/204/194 208/220/210 223/224/214
f 203/205/195 202/222/212 218/225/215
f 197/226/216 196/207/197 212/227/217
f 210/228/218 209/204/194 224/229/219
f 204/230/220 203/205/195 218/225/215
f 198/211/201 197/226/216 213/231/221
f 205/212/202 204/230/220 220/216/206
f 218/225/215 217/223/213 232/232/222
f 212/227/217 211/233/223 227/234/224
f 225/235/225 224/229/219 239/236/226
f 219/237/227 218/225/215 233/238/228
f 213/231/221 212/227/217 227/234/224
f 220/216/206 219/237/227 235/239/229
f 214/215/205 213/231/221 229/240/230
f 221/218/208 220/216/206 235/239/229
f 215/219/209 214/215/205 230/241/231
f 222/221/211 221/218/208 237/242/232
f 216/243/233 215/219/209 230/241/231
f 223/224/214 222/221/211 237/242/232
f 217/223/213 216/243/233 231/244/234
f 224/229/219 223/224/214 238/245/235
f 237/242/232 236/246/236 251/247/237
f 231/244/234 230/241/231 245/248/238
f 238/245/235 237/242/232 252/249/239
f 232/232/222 231/244/234 246/250/240
f 239/236/226 238/245/235 254/251/241
f 233/238/228 232/232/222 248/252/242
f 227/234/224 226/253/243 241/254/244
f 240/255/245 239/236/226 254/251/241
f 234/256/246 233/238/228 249/257/247
f 228/258/248 227/234/224 243/259/249
f 235/239/229 234/256/246 249/257/247
f 229/240/230 228/258/248 244/260/250
f 236/246/236 235/239/229 250/261/251
f 230/241/231 229/240/230 244/260/250
f 250/261/251 249/257/247 265/262/252
f 244/260/250 243/259/249 259/263/253
f 251/247/237 250/261/251 265/262/252
f 245/248/238 244/260/250 259/263/253
f 252/249/239 251/247/237 266/264/254
f 246/250/240 245/248/238 260/265/255
f 253/266/256 252/249/239 267/267/257
f 247/268/258 246/250/240 262/269/259
f 254/251/241 253/266/256 268/270/260
f 248/252/242 247/268/258 263/271/261
f 242/272/262 241/254/244 257/273/263
f 255/274/264 254/251/241 270/275/265
f 249/257/247 248/252/242 263/271/261
f 243/259/249 242/272/262 258/276/266
f 269/277/267 268/270/260 283/278/268
f 263/271/261 262/269/259 277/279/269
f 257/273/263 256/280/270 271/281/271
f 270/275/265 269/277/267 285/282/272
f 264/283/273 263/271/261 278/284/274
f 258/276/266 257/273/263 273/285/275
f 265/262/252 264/283/273 280/286/276
f 259/263/253 258/276/266 274/287/277
f 266/264/254 265/262/252 280/286/276
f 260/265/255 259/263/253 274/287/277
f 267/267/257 266/264/254 282/288/278
f 261/289/279 260/265/255 275/290/280
f 268/270/260 267/267/257 282/288/278
f 262/269/259 261/289/279 276/291/281
f 282/288/278 281/292/282 297/293/283
f 276/291/281 275/290/280 290/294/284
f 283/278/268 282/288/278 298/295/285
f 277/279/269 276/291/281 291/296/286
f 284/297/287 283/278/268 299/298/288
f 278/284/274 277/279/269 293/299/289
f 272/300/290 271/281/271 287/301/291
f 285/282/272 284/297/287 299/298/288
f 279/302/292 278/284/274 293/299/289
f 273/285/275 272/300/290 287/301/291
f 280/286/276 279/302/292 295/303/293
f 274/287/277 273/285/275 288/304/294
f 281/292/282 280/286/276 295/303/293
f 275/290/280 274/287/277 289/305/295
f 295/303/293 294/306/296 310/307/297
f 289/305/295 288/304/294 303/308/298
f 296/309/299 295/303/293 311/310/300
f 290/294/284 289/305/295 305/311/301
f 297/293/283 296/309/299 311/310/300
f 291/296/286 290/294/284 305/311/301
f 298/295/285 297/293/283 312/312/302
f 292/313/303 291/296/286 306/314/304
f 299/315/288 298/295/285 314/316/305
f 293/299/289 292/313/303 308/317/306
f 287/301/291 286/318/307 302/319/308
f 300/320/309 299/315/288 314/316/305
f 294/306/296 293/299/289 308/317/306
f 288/304/294 287/301/291 302/319/308
f 314/316/305 313/321/310 329/322/311
f 308/317/306 307/323/312 322/324/313
f 302/319/308 301/325/314 317/326/315
f 315/327/316 314/316/305 329/322/311
f 309/328/317 308/317/306 323/329/318
f 303/308/298 302/319/308 318/330/319
f 310/307/297 309/328/317 325/331/320
f 304/332/321 303/308/298 318/330/319
f 311/310/300 310/307/297 326/333/322
f 305/311/301 304/332/321 320/334/323
f 312/312/302 311/310/300 326/333/322
f 306/314/304 305/311/301 320/334/323
f 313/321/310 312/312/302 327/335/324
f 307/323/312 306/314/304 321/336/325
f 327/335/324 326/333/322 342/337/326
f 321/336/325 320/334/323 336/338/327
f 328/339/328 327/335/324 343/340/329
f 322/324/313 321/336/325 337/341/330
f 329/322/311 328/339/328 345/342/331
f 323/329/318 322/324/313 339/343/332
f 317/326/315 316/344/333 332/345/334
f 330/346/335 329/322/311 345/342/331
f 324/347/336 323/329/318 339/343/332
f 318/330/319 317/326/315 333/348/337
f 325/331/320 324/347/336 341/349/338
f 319/350/339 318/330/319 335/351/340
f 326/333/322 325/331/320 342/337/326
f 320/334/323 319/350/339 335/351/340
f 334/352/341 333/348/337 349/353/342
f 341/349/338 340/354/343 356/355/344
f 335/351/340 334/352/341 349/353/342
f 342/337/326 341/349/338 356/355/344
f 336/338/327 335/351/340 350/356/345
f 343/340/329 342/337/326 357/357/346
f 337/341/330 336/338/327 351/358/347
f 344/359/348 343/340/329 358/360/349
f 338/361/350 337/341/330 352/362/351
f 345/342/331 344/359/348 359/363/352
f 339/343/332 338/361/350 354/364/353
f 333/348/337 332/345/334 347/365/354
f 346/366/355 345/342/331 360/367/356
f 340/354/343 339/343/332 354/364/353
f 353/368/357 352/362/351 367/369/358
f 360/367/356 359/363/352 374/370/359
f 354/364/353 353/368/357 369/371/360
f 348/372/361 347/365/354 363/373/362
f 361/374/363 360/367/356 375/375/364
f 355/376/365 354/364/353 369/371/360
f 349/353/342 348/372/361 364/377/366
f 356/355/344 355/376/365 371/378/367
f 350/356/345 349/353/342 365/379/368
f 357/357/346 356/355/344 371/378/367
f 351/358/347 350/356/345 366/380/369
f 358/360/349 357/357/346 372/381/370
f 352/362/351 351/358/347 366/380/369
f 359/363/352 358/360/349 373/382/371
f 372/381/370 371/378/367 387/383/372
f 366/380/369 365/379/368 380/384/373
f 373/382/371 372/381/370 387/383/372
f 367/369/358 366/380/369 381/385/374
f 374/370/359 373/382/371 388/386/375
f 368/387/376 367/369/358 382/388/377
f 375/375/364 374/370/359 390/389/378
f 369/371/360 368/387/376 384/390/379
f 363/373/362 362/391/380 378/392/381
f 376/393/382 375/375/364 390/389/378
f 370/394/383 369/371/360 384/390/379
f 364/377/366 363/373/362 379/395/384
f 371/378/367 370/394/383 386/396/385
f 365/379/368 364/377/366 379/395/384
f 391/397/386 390/389/378 406/398/387
f 385/399/388 384/390/379 399/400/389
f 379/395/384 378/392/381 394/401/390
f 386/396/385 385/399/388 401/402/391
f 380/384/373 379/395/384 395/403/392
f 387/383/372 386/396/385 401/402/391
f 381/385/374 380/384/373 396/404/393
f 388/386/375 387/383/372 402/405/394
f 382/388/377 381/385/374 396/404/393
f 389/406/395 388/386/375 403/407/396
f 383/408/397 382/388/377 397/409/398
f 390/389/378 389/406/395 405/410/399
f 384/390/379 383/408/397 399/400/389
f 378/392/381 377/411/400 393/412/401
f 404/413/402 403/407/396 418/414/403
f 398/415/404 397/409/398 412/416/405
f 405/410/399 404/413/402 420/417/406
f 399/400/389 398/415/404 413/418/407
f 393/412/401 392/419/408 407/420/409
f 406/398/387 405/410/399 420/417/406
f 400/421/410 399/400/389 414/422/411
f 394/401/390 393/412/401 408/423/412
f 401/402/391 400/421/410 416/424/413
f 395/403/392 394/401/390 410/425/414
f 402/405/394 401/402/391 417/426/415
f 396/404/393 395/403/392 410/425/414
f 403/407/396 402/405/394 417/426/415
f 397/409/398 396/404/393 411/427/416
f 417/426/415 416/424/413 432/428/417
f 411/427/416 410/425/414 426/429/418
f 418/414/403 417/426/415 432/428/417
f 412/416/405 411/427/416 426/429/418
f 419/430/419 418/414/403 433/431/420
f 413/418/407 412/416/405 427/432/421
f 420/417/406 419/430/419 435/433/422
f 414/422/411 413/418/407 428/434/423
f 408/423/412 407/420/409 423/435/424
f 421/436/425 420/417/406 435/433/422
f 415/437/426 414/422/411 430/438/427
f 409/439/428 408/423/412 424/440/429
f 416/424/413 415/437/426 431/441/430
f 410/425/414 409/439/428 424/440/429
f 436/442/431 435/433/422 451/443/432
f 430/438/427 429/444/433 446/445/434
f 424/440/429 423/435/424 439/446/435
f 431/441/430 430/438/427 447/447/436
f 425/448/437 424/440/429 441/449/438
f 432/428/417 431/441/430 447/447/436
f 426/429/418 425/448/437 442/450/439
f 433/431/420 432/428/417 448/451/440
f 427/432/421 426/429/418 442/450/439
f 434/452/441 433/431/420 449/453/442
f 428/434/423 427/432/421 444/454/443
f 435/433/422 434/452/441 451/443/432
f 429/444/433 428/434/423 444/454/443
f 423/435/424 422/455/444 438/456/445
f 450/457/446 449/453/442 464/458/447
f 444/454/443 443/459/448 459/460/449
f 451/443/432 450/457/446 466/461/450
f 445/462/451 444/454/443 459/460/449
f 439/446/435 438/456/445 454/463/452
f 452/464/453 451/443/432 466/461/450
f 446/445/434 445/462/451 461/465/454
f 440/466/455 439/446/435 454/463/452
f 447/447/436 446/445/434 462/467/456
f 441/449/438 440/466/455 455/468/457
f 448/451/440 447/447/436 462/467/456
f 442/450/439 441/449/438 457/469/458
f 449/453/442 448/451/440 463/470/459
f 443/459/448 442/450/439 457/469/458
f 463/470/459 462/467/456 478/471/460
f 457/469/458 456/472/461 472/473/462
f 464/458/447 463/470/459 478/471/460
f 458/474/463 457/469/458 472/473/462
f 465/475/464 464/458/447 479/476/465
f 459/460/449 458/474/463 474/477/466
f 466/461/450 465/475/464 481/478/467
f 460/479/468 459/460/449 474/477/466
f 454/463/452 453/480/469 468/481/470
f 467/482/471 466/461/450 481/478/467
f 461/465/454 460/479/468 476/483/472
f 455/468/457 454/463/452 470/484/473
f 462/467/456 461/465/454 477/485/474
f 456/472/461 455/468/457 470/484/473
f 331/486/475 15/487/24 30/34/34
f 1/22/22 437/488/476 16/32/32
f 16/32/32 437/488/476 31/62/52
f 331/486/475 30/34/34 45/64/54
f 331/486/475 45/64/54 60/72/62
f 31/62/52 437/488/476 46/63/53
f 46/63/53 437/488/476 61/90/80
f 331/486/475 60/72/62 75/73/63
f 61/90/80 437/488/476 76/91/81
f 331/486/475 75/73/63 90/108/98
f 331/486/475 90/108/98 105/118/108
f 76/91/81 437/488/476 91/107/97
f 91/107/97 437/488/476 106/117/107
f 331/486/475 105/118/108 120/119/109
f 106/117/107 437/488/476 121/154/144
f 331/486/475 120/119/109 135/140/130
f 331/486/475 135/140/130 150/164/154
f 121/154/144 437/488/476 136/162/152
f 136/162/152 437/488/476 151/163/153
f 331/486/475 150/164/154 165/182/172
f 151/163/153 437/488/476 166/200/190
f 331/486/475 165/182/172 180/185/175
f 331/486/475 180/185/175 195/208/198
f 166/200/190 437/488/476 181/206/196
f 181/206/196 437/488/476 196/207/197
f 331/486/475 195/208/198 210/228/218
f 196/207/197 437/488/476 211/233/223
f 331/486/475 210/228/218 225/235/225
f 331/486/475 225/235/225 240/255/245
f 211/233/223 437/488/476 226/253/243
f 226/253/243 437/488/476 241/254/244
f 331/486/475 240/255/245 255/274/264
f 331/486/475 255/274/264 270/275/265
f 241/254/244 437/488/476 256/280/270
f 331/486/475 270/275/265 285/282/272
f 256/280/270 437/488/476 271/281/271
f 271/281/271 437/488/476 286/318/307
f 331/486/475 285/282/272 300/489/309
f 331/486/475 300/489/309 315/490/316
f 286/318/307 437/488/476 301/325/314
f 331/486/475 315/490/316 330/491/335
f 301/325/314 437/488/476 316/344/333
f 316/344/333 437/488/476 332/345/334
f 331/486/475 330/491/335 346/492/355
f 331/486/475 346/492/355 361/493/363
f 332/345/334 437/488/476 347/365/354
f 347/365/354 437/488/476 362/391/380
f 331/486/475 361/493/363 376/494/382
f 362/391/380 437/488/476 377/411/400
f 331/486/475 376/494/382 391/495/386
f 331/486/475 391/495/386 406/496/387
f 377/411/400 437/488/476 392/419/408
f 392/419/408 437/488/476 407/420/409
f 331/486/475 406/496/387 421/497/425
f 407/420/409 437/488/476 422/455/444
f 331/486/475 421/497/425 436/498/431
f 331/486/475 436/498/431 452/499/453
f 422/455/444 437/488/476 438/456/445
f 438/456/445 437/488/476 453/480/469
f 331/486/475 452/499/453 467/500/471
f 453/480/469 437/488/476 468/481/470
f 331/486/475 467/500/471 482/501/477
f 469/502/478 468/481/470 1/22/22
f 482/503/477 481/478/467 15/24/24
f 476/483/472 475/504/479 9/1/1
f 470/484/473 469/502/478 2/5/5
f 331/486/475 482/501/477 15/487/24
f 477/485/474 476/483/472 10/7/7
f 471/505/480 470/484/473 3/4/4
f 478/471/460 477/485/474 11/9/9
f 472/473/462 471/505/480 4/8/8
f 479/476/465 478/471/460 12/13/13
f 473/506/481 472/473/462 5/11/11
f 480/507/482 479/476/465 13/15/15
f 474/477/466 473/506/481 6/14/14
f 468/481/470 437/488/476 1/22/22
f 481/478/467 480/507/482 14/19/19
f 475/504/479 474/477/466 7/17/17
f 257/273/263 272/300/290 273/285/275
f 438/456/445 453/480/469 454/463/452
f 25/37/36 10/7/7 24/3/3
f 19/39/38 4/8/8 18/6/6
f 34/46/43 49/75/65 50/51/45
f 389/406/395 404/413/402 405/410/399
f 27/16/16 12/13/13 26/10/10
f 21/18/18 6/14/14 20/12/12
f 28/27/27 13/15/15 27/16/16
f 22/21/21 7/17/17 21/18/18
f 104/109/99 119/134/124 120/119/109
f 23/30/30 8/2/2 22/21/21
f 318/330/319 334/352/341 335/351/340
f 30/508/34 15/24/24 29/20/20
f 42/28/28 27/16/16 41/25/25
f 1/22/22 16/32/32 17/23/23
f 43/29/29 28/27/27 42/28/28
f 37/509/48 22/21/21 36/26/26
f 44/36/35 29/35/20 43/55/29
f 277/279/269 292/313/303 293/299/289
f 254/251/241 269/277/267 270/275/265
f 45/64/54 30/34/34 44/36/35
f 39/38/37 24/3/3 38/31/31
f 33/40/39 18/6/6 32/33/33
f 40/41/40 25/37/36 39/38/37
f 34/510/43 19/39/38 33/40/39
f 41/25/25 26/10/10 40/41/40
f 338/361/350 353/368/357 354/364/353
f 211/233/223 226/253/243 227/234/224
f 49/75/65 34/46/43 48/48/44
f 56/53/46 41/49/25 55/45/42
f 266/264/254 281/292/282 282/288/278
f 57/56/47 42/52/28 56/53/46
f 51/58/49 36/54/26 50/51/45
f 58/67/57 43/55/29 57/56/47
f 52/69/59 37/57/48 51/58/49
f 193/199/189 208/220/210 209/204/194
f 155/171/161 170/192/182 171/175/165
f 47/66/56 32/33/33 46/63/53
f 60/72/62 45/64/54 59/59/50
f 374/370/359 389/406/395 390/389/378
f 48/48/44 33/47/39 47/66/56
f 74/87/77 59/59/50 73/68/58
f 430/438/427 446/445/434 447/447/436
f 401/402/391 416/424/413 417/426/415
f 137/155/145 152/180/170 153/167/157
f 63/76/66 48/48/44 62/71/61
f 70/93/83 55/45/42 69/74/64
f 64/78/68 49/75/65 63/76/66
f 213/231/221 228/258/248 229/240/230
f 65/81/71 50/51/45 64/78/68
f 72/80/70 57/56/47 71/77/67
f 8/2/2 23/30/30 24/3/3
f 73/68/58 58/67/57 72/80/70
f 67/86/76 52/69/59 66/79/69
f 204/230/220 219/237/227 220/216/206
f 87/85/75 72/80/70 86/83/73
f 172/198/188 187/202/192 188/188/178
f 88/104/94 73/68/58 87/85/75
f 82/106/96 67/86/76 81/84/74
f 378/392/381 393/412/401 394/401/390
f 370/394/383 385/399/388 386/396/385
f 77/98/88 62/71/61 76/91/81
f 90/108/98 75/73/63 89/88/78
f 84/96/86 69/74/64 83/89/79
f 187/202/192 202/222/212 203/205/195
f 385/399/388 400/421/410 401/402/391
f 379/395/384 394/401/390 395/403/392
f 86/83/73 71/77/67 85/94/84
f 99/120/110 84/96/86 98/97/87
f 349/353/342 364/377/366 365/379/368
f 170/192/182 185/193/183 186/195/185
f 94/123/113 79/95/85 93/99/89
f 101/102/92 86/83/73 100/100/90
f 63/76/66 78/92/82 79/95/85
f 102/110/100 87/85/75 101/102/92
f 84/96/86 99/120/110 100/100/90
f 242/272/262 257/273/263 258/276/266
f 97/112/102 82/106/96 96/103/93
f 104/109/99 89/88/78 103/105/95
f 82/106/96 97/112/102 98/97/87
f 92/116/106 77/98/88 91/107/97
f 105/118/108 90/108/98 104/109/99
f 118/114/104 103/105/95 117/111/101
f 112/133/123 97/112/102 111/113/103
f 119/134/124 104/109/99 118/114/104
f 97/112/102 112/133/123 113/115/105
f 107/121/111 92/116/106 106/117/107
f 415/437/426 430/438/427 431/441/430
f 114/138/128 99/120/110 113/115/105
f 108/124/114 93/99/89 107/121/111
f 99/120/110 114/138/128 115/122/112
f 109/128/118 94/123/113 108/124/114
f 116/126/116 101/102/92 115/122/112
f 445/462/451 460/479/468 461/465/454
f 117/111/101 102/110/100 116/126/116
f 111/113/103 96/103/93 110/125/115
f 131/130/120 116/126/116 130/127/117
f 94/123/113 109/128/118 110/125/115
f 132/132/122 117/111/101 131/130/120
f 309/328/317 324/347/336 325/331/320
f 133/150/140 118/114/104 132/132/122
f 127/152/142 112/133/123 126/131/121
f 304/332/321 319/350/339 320/334/323
f 112/133/123 127/152/142 128/136/126
f 271/281/271 286/318/307 287/301/291
f 135/140/130 120/119/109 134/135/125
f 129/142/132 114/138/128 128/136/126
f 50/51/45 65/81/71 66/79/69
f 114/138/128 129/142/132 130/127/117
f 124/146/136 109/128/118 123/139/129
f 150/164/154 135/140/130 149/141/131
f 144/166/156 129/142/132 143/143/133
f 22/21/21 37/509/48 38/31/31
f 129/142/132 144/166/156 145/145/135
f 139/147/137 124/146/136 138/144/134
f 146/148/138 131/130/120 145/145/135
f 140/149/139 125/129/119 139/147/137
f 147/151/141 132/132/122 146/148/138
f 141/153/143 126/131/121 140/149/139
f 148/156/146 133/150/140 147/151/141
f 142/158/148 127/152/142 141/153/143
f 55/45/42 70/93/83 71/77/67
f 127/152/142 142/158/148 143/143/133
f 151/163/153 166/200/190 167/181/171
f 163/160/150 148/156/146 162/157/147
f 157/177/167 142/158/148 156/159/149
f 164/165/155 149/141/131 163/160/150
f 142/158/148 157/177/167 158/161/151
f 152/180/170 137/155/145 151/163/153
f 165/182/172 150/164/154 164/165/155
f 159/183/173 144/166/156 158/161/151
f 196/207/197 211/233/223 212/227/217
f 144/166/156 159/183/173 160/168/158
f 154/169/159 139/147/137 153/167/157
f 161/170/160 146/148/138 160/168/158
f 155/171/161 140/149/139 154/169/159
f 162/157/147 147/151/141 161/170/160
f 156/159/149 141/153/143 155/171/161
f 176/174/164 161/170/160 175/172/162
f 170/192/182 155/171/161 169/173/163
f 177/176/166 162/157/147 176/174/164
f 289/305/295 304/332/321 305/311/301
f 178/196/186 163/160/150 177/176/166
f 172/198/188 157/177/167 171/175/165
f 298/295/285 313/321/310 314/316/305
f 157/177/167 172/198/188 173/179/169
f 269/277/267 284/297/287 285/282/272
f 180/185/175 165/182/172 179/178/168
f 174/187/177 159/183/173 173/179/169
f 168/184/174 153/167/157 167/181/171
f 159/183/173 174/187/177 175/172/162
f 169/173/163 154/169/159 168/184/174
f 195/208/198 180/185/175 194/186/176
f 189/209/199 174/187/177 188/188/178
f 183/210/200 168/184/174 182/189/179
f 174/187/177 189/209/199 190/190/180
f 324/347/336 340/354/343 341/349/338
f 191/194/184 176/174/164 190/190/180
f 182/189/179 197/226/216 198/211/201
f 192/197/187 177/176/166 191/194/184
f 69/74/64 84/96/86 85/94/84
f 193/199/189 178/196/186 192/197/187
f 187/202/192 172/198/188 186/195/185
f 194/186/176 179/178/168 193/199/189
f 328/339/328 344/359/348 345/342/331
f 407/420/409 422/455/444 423/435/424
f 208/220/210 193/199/189 207/201/191
f 202/222/212 187/202/192 201/203/193
f 38/60/31 53/61/51 54/65/55
f 77/98/88 92/116/106 93/99/89
f 197/226/216 182/189/179 196/207/197
f 210/228/218 195/208/198 209/204/194
f 204/230/220 189/209/199 203/205/195
f 325/331/320 341/349/338 342/337/326
f 67/86/76 82/106/96 83/89/79
f 446/445/434 461/465/454 462/467/456
f 206/214/204 191/194/184 205/212/202
f 200/217/207 185/193/183 199/213/203
f 207/201/191 192/197/187 206/214/204
f 43/55/29 58/67/57 59/59/50
f 20/12/12 35/42/41 36/26/26
f 221/218/208 206/214/204 220/216/206
f 215/219/209 200/217/207 214/215/205
f 222/221/211 207/201/191 221/218/208
f 216/243/233 201/203/193 215/219/209
f 223/224/214 208/220/210 222/221/211
f 79/95/85 94/123/113 95/101/91
f 224/229/219 209/204/194 223/224/214
f 198/211/201 213/231/221 214/215/205
f 238/245/235 253/266/256 254/251/241
f 225/235/225 210/228/218 224/229/219
f 219/237/227 204/230/220 218/225/215
f 62/71/61 77/98/88 78/92/82
f 416/424/413 431/441/430 432/428/417
f 233/238/228 218/225/215 232/232/222
f 241/254/244 256/280/270 257/273/263
f 240/255/245 225/235/225 239/236/226
f 234/256/246 219/237/227 233/238/228
f 228/258/248 213/231/221 227/234/224
f 247/268/258 262/269/259 263/271/261
f 404/413/402 419/430/419 420/417/406
f 236/246/236 221/218/208 235/239/229
f 46/63/53 61/90/80 62/71/61
f 454/463/452 469/502/478 470/484/473
f 231/244/234 216/243/233 230/241/231
f 238/245/235 223/224/214 237/242/232
f 232/232/222 217/223/213 231/244/234
f 239/236/226 224/229/219 238/245/235
f 252/249/239 237/242/232 251/247/237
f 246/250/240 231/244/234 245/248/238
f 253/266/256 238/245/235 252/249/239
f 247/268/258 232/232/222 246/250/240
f 394/401/390 409/439/428 410/425/414
f 64/78/68 79/95/85 80/82/72
f 242/272/262 227/234/224 241/254/244
f 255/274/264 240/255/245 254/251/241
f 441/449/438 456/472/461 457/469/458
f 249/257/247 264/283/273 265/262/252
f 250/261/251 235/239/229 249/257/247
f 383/408/397 398/415/404 399/400/389
f 251/247/237 236/246/236 250/261/251
f 245/248/238 230/241/231 244/260/250
f 243/259/249 258/276/266 259/263/253
f 214/215/205 229/240/230 230/241/231
f 266/264/254 251/247/237 265/262/252
f 260/265/255 245/248/238 259/263/253
f 267/267/257 252/249/239 266/264/254
f 261/289/279 246/250/240 260/265/255
f 268/270/260 253/266/256 267/267/257
f 10/7/7 25/37/36 26/10/10
f 269/277/267 254/251/241 268/270/260
f 109/128/118 124/146/136 125/129/119
f 121/154/144 136/162/152 137/155/145
f 347/365/354 362/391/380 363/373/362
f 264/283/273 249/257/247 263/271/261
f 302/319/308 317/326/315 318/330/319
f 284/297/287 269/277/267 283/278/268
f 278/284/274 263/271/261 277/279/269
f 272/300/290 257/273/263 271/281/271
f 362/391/380 377/411/400 378/392/381
f 279/302/292 264/283/273 278/284/274
f 163/160/150 178/196/186 179/178/168
f 107/121/111 122/137/127 123/139/129
f 340/354/343 355/376/365 356/355/344
f 281/292/282 266/264/254 280/286/276
f 275/290/280 260/265/255 274/287/277
f 295/303/293 310/307/297 311/310/300
f 276/291/281 261/289/279 275/290/280
f 283/278/268 268/270/260 282/288/278
f 277/279/269 262/269/259 276/291/281
f 185/193/183 200/217/207 201/203/193
f 291/296/286 276/291/281 290/294/284
f 363/373/362 378/392/381 379/395/384
f 292/313/303 277/279/269 291/296/286
f 313/321/310 328/339/328 329/322/311
f 283/278/268 298/295/285 299/315/288
f 16/32/32 31/62/52 32/33/33
f 300/489/309 285/282/272 299/298/288
f 294/306/296 279/302/292 293/299/289
f 288/304/294 273/285/275 287/301/291
f 279/302/292 294/306/296 295/303/293
f 289/305/295 274/287/277 288/304/294
f 296/309/299 281/292/282 295/303/293
f 290/294/284 275/290/280 289/305/295
f 294/306/296 309/328/317 310/307/297
f 304/332/321 289/305/295 303/308/298
f 39/44/37 54/65/55 55/45/42
f 122/137/127 137/155/145 138/144/134
f 312/312/302 297/293/283 311/310/300
f 306/314/304 291/296/286 305/311/301
f 313/321/310 298/295/285 312/312/302
f 307/323/312 292/313/303 306/314/304
f 258/276/266 273/285/275 274/287/277
f 168/184/174 183/210/200 184/191/181
f 390/389/378 405/410/399 406/398/387
f 315/327/316 300/320/309 314/316/305
f 309/328/317 294/306/296 308/317/306
f 303/308/298 288/304/294 302/319/308
f 65/81/71 80/82/72 81/84/74
f 323/329/318 308/317/306 322/324/313
f 118/114/104 133/150/140 134/135/125
f 330/346/335 315/327/316 329/322/311
f 324/347/336 309/328/317 323/329/318
f 197/226/216 212/227/217 213/231/221
f 458/474/463 473/506/481 474/477/466
f 319/350/339 304/332/321 318/330/319
f 246/250/240 261/289/279 262/269/259
f 310/307/297 325/331/320 326/333/322
f 327/335/324 312/312/302 326/333/322
f 321/336/325 306/314/304 320/334/323
f 328/339/328 313/321/310 327/335/324
f 322/324/313 307/323/312 321/336/325
f 343/340/329 327/335/324 342/337/326
f 337/341/330 321/336/325 336/338/327
f 344/359/348 328/339/328 343/340/329
f 338/361/350 322/324/313 337/341/330
f 169/173/163 184/191/181 185/193/183
f 189/209/199 204/230/220 205/212/202
f 333/348/337 317/326/315 332/345/334
f 346/366/355 330/346/335 345/342/331
f 340/354/343 324/347/336 339/343/332
f 334/352/341 318/330/319 333/348/337
f 322/324/313 338/361/350 339/343/332
f 333/348/337 348/372/361 349/353/342
f 353/368/357 368/387/376 369/371/360
f 336/338/327 320/334/323 335/351/340
f 282/288/278 297/293/283 298/295/285
f 37/57/48 52/69/59 53/61/51
f 350/356/345 335/351/340 349/353/342
f 357/357/346 342/337/326 356/355/344
f 351/358/347 336/338/327 350/356/345
f 358/360/349 343/340/329 357/357/346
f 352/362/351 337/341/330 351/358/347
f 359/363/352 344/359/348 358/360/349
f 353/368/357 338/361/350 352/362/351
f 360/367/356 345/342/331 359/363/352
f 355/376/365 370/394/383 371/378/367
f 348/372/361 333/348/337 347/365/354
f 361/374/363 346/366/355 360/367/356
f 355/376/365 340/354/343 354/364/353
f 368/387/376 353/368/357 367/369/358
f 375/375/364 360/367/356 374/370/359
f 19/39/38 34/510/43 35/42/41
f 166/200/190 181/206/196 182/189/179
f 376/393/382 361/374/363 375/375/364
f 370/394/383 355/376/365 369/371/360
f 73/68/58 88/104/94 89/88/78
f 183/210/200 198/211/201 199/213/203
f 281/292/282 296/309/299 297/293/283
f 372/381/370 357/357/346 371/378/367
f 201/203/193 216/243/233 217/223/213
f 373/382/371 358/360/349 372/381/370
f 367/369/358 352/362/351 366/380/369
f 374/370/359 359/363/352 373/382/371
f 408/423/412 423/435/424 424/440/429
f 381/385/374 366/380/369 380/384/373
f 388/386/375 373/382/371 387/383/372
f 382/388/377 367/369/358 381/385/374
f 389/406/395 374/370/359 388/386/375
f 383/408/397 368/387/376 382/388/377
f 202/222/212 217/223/213 218/225/215
f 429/444/433 445/462/451 446/445/434
f 106/117/107 121/154/144 122/137/127
f 391/397/386 376/393/382 390/389/378
f 385/399/388 370/394/383 384/390/379
f 371/378/367 386/396/385 387/383/372
f 400/421/410 415/437/426 416/424/413
f 380/384/373 365/379/368 379/395/384
f 59/59/50 74/87/77 75/73/63
f 400/421/410 385/399/388 399/400/389
f 424/440/429 440/466/455 441/449/438
f 368/387/376 383/408/397 384/390/379
f 133/150/140 148/156/146 149/141/131
f 402/405/394 387/383/372 401/402/391
f 87/85/75 102/110/100 103/105/95
f 403/407/396 388/386/375 402/405/394
f 397/409/398 382/388/377 396/404/393
f 404/413/402 389/406/395 403/407/396
f 398/415/404 383/408/397 397/409/398
f 2/5/5 17/23/23 18/6/6
f 227/234/224 242/272/262 243/259/249
f 228/258/248 243/259/249 244/260/250
f 419/430/419 404/413/402 418/414/403
f 413/418/407 398/415/404 412/416/405
f 4/8/8 19/39/38 20/12/12
f 414/422/411 399/400/389 413/418/407
f 408/423/412 393/412/401 407/420/409
f 421/436/425 406/398/387 420/417/406
f 415/437/426 400/421/410 414/422/411
f 409/439/428 394/401/390 408/423/412
f 232/232/222 247/268/258 248/252/242
f 425/448/437 441/449/438 442/450/439
f 419/430/419 434/452/441 435/433/422
f 411/427/416 396/404/393 410/425/414
f 418/414/403 403/407/396 417/426/415
f 412/416/405 397/409/398 411/427/416
f 221/218/208 236/246/236 237/242/232
f 427/432/421 443/459/448 444/454/443
f 433/431/420 418/414/403 432/428/417
f 427/432/421 412/416/405 426/429/418
f 434/452/441 419/430/419 433/431/420
f 428/434/423 413/418/407 427/432/421
f 13/15/15 28/27/27 29/20/20
f 429/444/433 414/422/411 428/434/423
f 286/318/307 301/325/314 302/319/308
f 436/442/431 421/436/425 435/433/422
f 410/425/414 425/448/437 426/429/418
f 301/325/314 316/344/333 317/326/315
f 53/61/51 68/70/60 69/74/64
f 425/448/437 410/425/414 424/440/429
f 452/464/453 436/442/431 451/443/432
f 414/422/411 429/444/433 430/438/427
f 440/466/455 424/440/429 439/446/435
f 348/372/361 363/373/362 364/377/366
f 380/384/373 395/403/392 396/404/393
f 448/451/440 432/428/417 447/447/436
f 52/69/59 67/86/76 68/70/60
f 449/453/442 433/431/420 448/451/440
f 443/459/448 427/432/421 442/450/439
f 450/457/446 434/452/441 449/453/442
f 460/479/468 475/504/479 476/483/472
f 292/313/303 307/323/312 308/317/306
f 445/462/451 429/444/433 444/454/443
f 439/446/435 423/435/424 438/456/445
f 465/475/464 450/457/446 464/458/447
f 450/457/446 465/475/464 466/461/450
f 462/467/456 477/485/474 478/471/460
f 460/479/468 445/462/451 459/460/449
f 377/411/400 392/419/408 393/412/401
f 467/482/471 452/464/453 466/461/450
f 443/459/448 458/474/463 459/460/449
f 455/468/457 440/466/455 454/463/452
f 350/356/345 365/379/368 366/380/369
f 456/472/461 441/449/438 455/468/457
f 463/470/459 448/451/440 462/467/456
f 456/472/461 471/505/480 472/473/462
f 464/458/447 449/453/442 463/470/459
f 458/474/463 443/459/448 457/469/458
f 233/238/228 248/252/242 249/257/247
f 475/504/479 8/2/2 9/1/1
f 479/476/465 464/458/447 478/471/460
f 473/506/481 458/474/463 472/473/462
f 480/507/482 465/475/464 479/476/465
f 80/82/72 95/101/91 96/103/93
f 434/452/441 450/457/446 451/443/432
f 475/504/479 460/479/468 474/477/466
f 469/502/478 454/463/452 468/481/470
f 482/503/477 467/482/471 481/478/467
f 465/475/464 480/507/482 481/478/467
f 219/237/227 234/256/246 235/239/229
f 264/283/273 279/302/292 280/286/276
f 471/505/480 456/472/461 470/484/473
f 2/5/5 469/502/478 1/22/22
f 481/478/467 14/19/19 15/24/24
f 461/465/454 476/483/472 477/485/474
f 3/4/4 470/484/473 2/5/5
f 476/483/472 9/1/1 10/7/7
f 4/8/8 471/505/480 3/4/4
f 477/485/474 10/7/7 11/9/9
f 5/11/11 472/473/462 4/8/8
f 478/471/460 11/9/9 12/13/13
f 6/14/14 473/506/481 5/11/11
f 479/476/465 12/13/13 13/15/15
f 7/17/17 474/477/466 6/14/14
f 480/507/482 13/15/15 14/19/19
f 8/2/2 475/504/479 7/17/17
f 110/125/115 125/129/119 126/131/121
